      1 Error: The reference cde was not found in the current environment
      2 Error: The reference nbess was not found in the current environment
      2 Error: The reference tst_cls was not found in the current environment
      3 Error: The reference ni was not found in the current environment
      3 Error: The reference nro_carte was not found in the current environment
      3 Error: The reference Override was not found in the current environment
      3 Syntax error: [constr:operconstr level 200] expected after ',' (in [constr:operconstr])
      4 Error: The reference essaip was not found in the current environment
      6 Error: The reference ii was not found in the current environment
      7 Error: The reference itd was not found in the current environment
      8 Error: The reference corbeille_fresh_0000 was not found in the current
      8 Error: The reference sld was not found in the current environment
     11 Error: The reference pan_dab was not found in the current environment
     12 Error: The reference cpt_crt was not found in the current environment
     18 Error: The reference rjt was not found in the current environment
     19 Error: The reference infl was not found in the current environment
     20 Error: The reference ctrl was not found in the current environment
     20 Error: The reference tst_dab was not found in the current environment
     24 Error: The reference ctr was not found in the current environment
     32 Error: The reference som was not found in the current environment
     34 Error: Cannot infer a type for etat
     39 Error: The reference cds was not found in the current environment
     57 Error: The reference oper was not found in the current environment
    132 User error: Attempt to save an incomplete proof
    135 Error: The reference eta_prec was not found in the current environment
    236 Syntax error: ',' expected after [binder_list] (in [constr:binder_constr])
    546 Error:
