      1 Error: Cannot infer the type of x.
      2 Error: Cannot infer the type of lvs_l.
      2 Error: Cannot infer the type of qa1_l.
      4 Error: Cannot infer the type of pa1_l1.
      4 Error: Cannot infer the type of qc1_l.
      4 Error: Cannot infer the type of rtk1_l.
      5 Error: Cannot infer the type of max_l.
      6 Error: Omega can't solve this system
      8 Error: Cannot infer the implicit parameter V of app.
     11 Error: Attempt to save an incomplete proof
     12 Error: Omega: Unrecognized predicate or connective: Comprehension
     17 Error:
     32 Error: Omega: Unrecognized predicate or connective: Full_set
     45 Error: Not reducible.
   1774 Error: Cannot infer the implicit parameter A of app.
