//
//
// AUTHOR : Boulanger Jean-Louis
// FILE   : Bilan.txt
//

Project status
+--------------+----+-----+-----+-----+-----+-----+-----+-----+-----+-----+-----+
| COMPONENT    | TC | POG | Obv | nPO | nUn | %Pr | B0C |  C  | Ada | C++ | HIA |
+--------------+----+-----+-----+-----+-----+-----+-----+-----+-----+-----+-----+
| HelloWorld   | OK | OK  |   3 |   0 |   0 | 100 | OK  |     |     |     |     |
| HelloWorld_n | OK | OK  |   4 |   1 |   0 | 100 | OK  | OK  | OK  | OK  |  -  |
+--------------+----+-----+-----+-----+-----+-----+-----+-----+-----+-----+-----+
| TOTAL        | OK | OK  |   7 |   1 |   0 | 100 | OK  | OK  | OK  | OK  |  -  |
+--------------+----+-----+-----+-----+-----+-----+-----+-----+-----+-----+-----+
