<?xml version="1.0" encoding="ISO-8859-1" standalone="yes"?>
<!DOCTYPE AMN SYSTEM "AMN.dtd">

<ProofObligation><IdList><Id>RUNNER</Id></IdList><Predicate><Implies><PredParen><In><Id>RUNNER</Id><PowOne><Expr><SetPredefined><INT/></SetPredefined></Expr></PowOne></In></PredParen><In><SeqEmpty/><ISeq><Expr><Id>RUNNER</Id></Expr></ISeq></In></Implies></Predicate></ProofObligation>
