REFINEMENT        AllocateR

REFINES           Allocate

SEES              Bool_TYPE

VARIABLES         allocated

INITIALISATION    allocated := {}

OPERATIONS

  choose(nn) = allocated := allocated \/ {nn};

  aa <-- query(nn) = 
  IF nn : allocated THEN aa := TRUE ELSE aa := FALSE END;

  nn <-- allocate = BEGIN nn := min(NAT1-allocated) ; allocated := allocated \/ {nn} END

END
