REFINEMENT        BooksR ( BOOK )

REFINES           Books

ABSTRACT_VARIABLES scheme

INVARIANT         scheme : iseq ( BOOK ) & ran ( scheme ) = BOOK - read

INITIALISATION    scheme :: perm ( BOOK )

OPERATIONS

  bb <-- newbook =
  BEGIN bb := first ( scheme ) ; scheme := tail ( scheme ) END

END
