REFINEMENT        JukeboxR

REFINES           Jukebox

CONCRETE_CONSTANTS freefreq

PROPERTIES        freefreq : NAT1

ABSTRACT_VARIABLES creditr , playlist , free

INVARIANT         creditr : NAT & creditr = credit
                  & playlist : iseq ( TRACK ) & ran ( playlist ) = playset
                  & free : 0 .. freefreq


INITIALISATION    creditr := 0 ; playlist := <> ; free := 0

OPERATIONS

  pay ( cc ) = creditr := min ( { creditr + cc , limit } ) ;

  select ( tt ) =
  BEGIN
    IF tt /: ran ( playlist ) THEN playlist := playlist <- tt END ;
    IF free = freefreq
    THEN CHOICE free := 0 OR creditr := creditr - 1 END
    ELSE free := free + 1 ; creditr := creditr - 1 END
  END ;

  tt <-- play =
  BEGIN tt := first ( playlist ) ; playlist := tail ( playlist ) END ;

  penalty = IF playlist /= <> THEN playlist := tail ( playlist )
            ELSIF creditr > 0 THEN creditr := creditr - 1
            END

END
