%!PS-Adobe-2.0 EPSF-2.0
%%Title: AtelierB.eps
%%Creator: fig2dev Version 3.2 Patchlevel 3c
%%CreationDate: Thu Nov  9 00:23:53 2000
%%For: atelierb@sphynx ()
%%BoundingBox: 0 0 543 735
%%Magnification: 1.0000
%%EndComments
/$F2psDict 200 dict def
$F2psDict begin
$F2psDict /mtrx matrix put
/col-1 {0 setgray} bind def
/col0 {0.000 0.000 0.000 srgb} bind def
/col1 {0.000 0.000 1.000 srgb} bind def
/col2 {0.000 1.000 0.000 srgb} bind def
/col3 {0.000 1.000 1.000 srgb} bind def
/col4 {1.000 0.000 0.000 srgb} bind def
/col5 {1.000 0.000 1.000 srgb} bind def
/col6 {1.000 1.000 0.000 srgb} bind def
/col7 {1.000 1.000 1.000 srgb} bind def
/col8 {0.000 0.000 0.560 srgb} bind def
/col9 {0.000 0.000 0.690 srgb} bind def
/col10 {0.000 0.000 0.820 srgb} bind def
/col11 {0.530 0.810 1.000 srgb} bind def
/col12 {0.000 0.560 0.000 srgb} bind def
/col13 {0.000 0.690 0.000 srgb} bind def
/col14 {0.000 0.820 0.000 srgb} bind def
/col15 {0.000 0.560 0.560 srgb} bind def
/col16 {0.000 0.690 0.690 srgb} bind def
/col17 {0.000 0.820 0.820 srgb} bind def
/col18 {0.560 0.000 0.000 srgb} bind def
/col19 {0.690 0.000 0.000 srgb} bind def
/col20 {0.820 0.000 0.000 srgb} bind def
/col21 {0.560 0.000 0.560 srgb} bind def
/col22 {0.690 0.000 0.690 srgb} bind def
/col23 {0.820 0.000 0.820 srgb} bind def
/col24 {0.500 0.190 0.000 srgb} bind def
/col25 {0.630 0.250 0.000 srgb} bind def
/col26 {0.750 0.380 0.000 srgb} bind def
/col27 {1.000 0.500 0.500 srgb} bind def
/col28 {1.000 0.630 0.630 srgb} bind def
/col29 {1.000 0.750 0.750 srgb} bind def
/col30 {1.000 0.880 0.880 srgb} bind def
/col31 {1.000 0.840 0.000 srgb} bind def

end
save
newpath 0 735 moveto 0 0 lineto 543 0 lineto 543 735 lineto closepath clip newpath
-12.0 744.0 translate
1 -1 scale

/cp {closepath} bind def
/ef {eofill} bind def
/gr {grestore} bind def
/gs {gsave} bind def
/sa {save} bind def
/rs {restore} bind def
/l {lineto} bind def
/m {moveto} bind def
/rm {rmoveto} bind def
/n {newpath} bind def
/s {stroke} bind def
/sh {show} bind def
/slc {setlinecap} bind def
/slj {setlinejoin} bind def
/slw {setlinewidth} bind def
/srgb {setrgbcolor} bind def
/rot {rotate} bind def
/sc {scale} bind def
/sd {setdash} bind def
/ff {findfont} bind def
/sf {setfont} bind def
/scf {scalefont} bind def
/sw {stringwidth} bind def
/tr {translate} bind def
/tnt {dup dup currentrgbcolor
  4 -2 roll dup 1 exch sub 3 -1 roll mul add
  4 -2 roll dup 1 exch sub 3 -1 roll mul add
  4 -2 roll dup 1 exch sub 3 -1 roll mul add srgb}
  bind def
/shd {dup dup currentrgbcolor 4 -2 roll mul 4 -2 roll mul
  4 -2 roll mul srgb} bind def
/reencdict 12 dict def /ReEncode { reencdict begin
/newcodesandnames exch def /newfontname exch def /basefontname exch def
/basefontdict basefontname findfont def /newfont basefontdict maxlength dict def
basefontdict { exch dup /FID ne { dup /Encoding eq
{ exch dup length array copy newfont 3 1 roll put }
{ exch newfont 3 1 roll put } ifelse } { pop pop } ifelse } forall
newfont /FontName newfontname put newcodesandnames aload pop
128 1 255 { newfont /Encoding get exch /.notdef put } for
newcodesandnames length 2 idiv { newfont /Encoding get 3 1 roll put } repeat
newfontname newfont definefont pop end } def
/isovec [
8#055 /minus 8#200 /grave 8#201 /acute 8#202 /circumflex 8#203 /tilde
8#204 /macron 8#205 /breve 8#206 /dotaccent 8#207 /dieresis
8#210 /ring 8#211 /cedilla 8#212 /hungarumlaut 8#213 /ogonek 8#214 /caron
8#220 /dotlessi 8#230 /oe 8#231 /OE
8#240 /space 8#241 /exclamdown 8#242 /cent 8#243 /sterling
8#244 /currency 8#245 /yen 8#246 /brokenbar 8#247 /section 8#250 /dieresis
8#251 /copyright 8#252 /ordfeminine 8#253 /guillemotleft 8#254 /logicalnot
8#255 /hyphen 8#256 /registered 8#257 /macron 8#260 /degree 8#261 /plusminus
8#262 /twosuperior 8#263 /threesuperior 8#264 /acute 8#265 /mu 8#266 /paragraph
8#267 /periodcentered 8#270 /cedilla 8#271 /onesuperior 8#272 /ordmasculine
8#273 /guillemotright 8#274 /onequarter 8#275 /onehalf
8#276 /threequarters 8#277 /questiondown 8#300 /Agrave 8#301 /Aacute
8#302 /Acircumflex 8#303 /Atilde 8#304 /Adieresis 8#305 /Aring
8#306 /AE 8#307 /Ccedilla 8#310 /Egrave 8#311 /Eacute
8#312 /Ecircumflex 8#313 /Edieresis 8#314 /Igrave 8#315 /Iacute
8#316 /Icircumflex 8#317 /Idieresis 8#320 /Eth 8#321 /Ntilde 8#322 /Ograve
8#323 /Oacute 8#324 /Ocircumflex 8#325 /Otilde 8#326 /Odieresis 8#327 /multiply
8#330 /Oslash 8#331 /Ugrave 8#332 /Uacute 8#333 /Ucircumflex
8#334 /Udieresis 8#335 /Yacute 8#336 /Thorn 8#337 /germandbls 8#340 /agrave
8#341 /aacute 8#342 /acircumflex 8#343 /atilde 8#344 /adieresis 8#345 /aring
8#346 /ae 8#347 /ccedilla 8#350 /egrave 8#351 /eacute
8#352 /ecircumflex 8#353 /edieresis 8#354 /igrave 8#355 /iacute
8#356 /icircumflex 8#357 /idieresis 8#360 /eth 8#361 /ntilde 8#362 /ograve
8#363 /oacute 8#364 /ocircumflex 8#365 /otilde 8#366 /odieresis 8#367 /divide
8#370 /oslash 8#371 /ugrave 8#372 /uacute 8#373 /ucircumflex
8#374 /udieresis 8#375 /yacute 8#376 /thorn 8#377 /ydieresis] def
/Times-Roman /Times-Roman-iso isovec ReEncode
/$F2psBegin {$F2psDict begin /$F2psEnteredState save def} def
/$F2psEnd {$F2psEnteredState restore end} def

$F2psBegin
%%Page: 1 1
10 setmiterlimit
 0.06000 0.06000 sc
%
% Fig objects follow
%
/Times-Roman-iso ff 180.00 scf sf
8475 5625 m
gs 1 -1 sc (Rules) col0 sh gr
% Polyline
7.500 slw
n 8325 1350 m 8325 675 l 6300 675 l 6300 1350 l
 cp gs col-1 s gr 
/Times-Roman-iso ff 180.00 scf sf
6480 1080 m
gs 1 -1 sc (IMPLEMENTATION) col-1 sh gr
% Polyline
n 5175 1350 m 5175 675 l 3600 675 l 3600 1350 l
 cp gs col-1 s gr 
/Times-Roman-iso ff 180.00 scf sf
3825 1080 m
gs 1 -1 sc (REFINEMENT) col-1 sh gr
% Polyline
n 2475 1350 m 2475 675 l 1125 675 l 1125 1350 l
 cp gs col-1 s gr 
% Polyline
n 3480 2475 m 3375 2475 3375 3000 105 arcto 4 {pop} repeat
  3375 3105 5745 3105 105 arcto 4 {pop} repeat
  5850 3105 5850 2580 105 arcto 4 {pop} repeat
  5850 2475 3480 2475 105 arcto 4 {pop} repeat
 cp gs col-1 s gr 
% Polyline
n 3480 3555 m 3375 3555 3375 4080 105 arcto 4 {pop} repeat
  3375 4185 5745 4185 105 arcto 4 {pop} repeat
  5850 4185 5850 3660 105 arcto 4 {pop} repeat
  5850 3555 3480 3555 105 arcto 4 {pop} repeat
 cp gs col-1 s gr 
% Polyline
n 3480 4680 m 3375 4680 3375 5205 105 arcto 4 {pop} repeat
  3375 5310 5745 5310 105 arcto 4 {pop} repeat
  5850 5310 5850 4785 105 arcto 4 {pop} repeat
  5850 4680 3480 4680 105 arcto 4 {pop} repeat
 cp gs col-1 s gr 
% Polyline
n 5280 6300 m 5175 6300 5175 6825 105 arcto 4 {pop} repeat
  5175 6930 7545 6930 105 arcto 4 {pop} repeat
  7650 6930 7650 6405 105 arcto 4 {pop} repeat
  7650 6300 5280 6300 105 arcto 4 {pop} repeat
 cp gs col-1 s gr 
% Polyline
n 1905 7650 m 1800 7650 1800 8175 105 arcto 4 {pop} repeat
  1800 8280 4170 8280 105 arcto 4 {pop} repeat
  4275 8280 4275 7755 105 arcto 4 {pop} repeat
  4275 7650 1905 7650 105 arcto 4 {pop} repeat
 cp gs col-1 s gr 
% Polyline
gs  clippath
6066 6332 m 6106 6287 l 5992 6187 l 6063 6289 l 5953 6232 l cp
eoclip
n 4950 5310 m
 6075 6300 l gs col-1 s gr gr

% arrowhead
n 5953 6232 m 6063 6289 l 5992 6187 l  col-1 s
% Polyline
gs  clippath
2891 7603 m 2943 7632 l 3018 7501 l 2933 7591 l 2966 7471 l cp
eoclip
n 4230 5310 m
 2925 7605 l gs col-1 s gr gr

% arrowhead
n 2966 7471 m 2933 7591 l 3018 7501 l  col-1 s
% Polyline
gs  clippath
4205 7627 m 4226 7683 l 4367 7628 l 4245 7644 l 4345 7572 l cp
eoclip
n 6075 6930 m
 4230 7650 l gs col-1 s gr gr

% arrowhead
n 4345 7572 m 4245 7644 l 4367 7628 l  col-1 s
% Polyline
gs  clippath
1408 9663 m 1450 9706 l 1559 9601 l 1452 9663 l 1517 9557 l cp
eoclip
n 2880 8280 m
 1440 9675 l gs col-1 s gr gr

% arrowhead
n 1517 9557 m 1452 9663 l 1559 9601 l  col-1 s
% Polyline
gs  clippath
3596 2508 m 3628 2458 l 3501 2375 l 3586 2466 l 3469 2425 l cp
eoclip
n 1800 1305 m
 3600 2475 l gs col-1 s gr gr

% arrowhead
n 3469 2425 m 3586 2466 l 3501 2375 l  col-1 s
% Polyline
gs  clippath
4472 2493 m 4531 2486 l 4513 2336 l 4498 2459 l 4453 2343 l cp
eoclip
n 4365 1350 m
 4500 2475 l gs col-1 s gr gr

% arrowhead
n 4453 2343 m 4498 2459 l 4513 2336 l  col-1 s
% Polyline
gs  clippath
5595 2458 m 5629 2508 l 5755 2423 l 5639 2466 l 5721 2373 l cp
eoclip
n 7290 1350 m
 5625 2475 l gs col-1 s gr gr

% arrowhead
n 5721 2373 m 5639 2466 l 5755 2423 l  col-1 s
% Polyline
n 2025 10350 m 2025 9675 l 900 9675 l 900 10350 l
 cp gs col-1 s gr 
% Polyline
n 4500 10350 m 4500 9675 l 3375 9675 l 3375 10350 l
 cp gs col-1 s gr 
% Polyline
gs  clippath
3805 9702 m 3858 9674 l 3788 9539 l 3817 9660 l 3735 9567 l cp
eoclip
n 3105 8280 m
 3825 9675 l gs col-1 s gr gr

% arrowhead
n 3735 9567 m 3817 9660 l 3788 9539 l  col-1 s
% Polyline
n 9000 6300 m 9000 5175 l 8325 5175 l 8325 6300 l
 cp gs col-1 s gr 
% Polyline
gs  clippath
7529 6286 m 7567 6332 l 7684 6235 l 7573 6289 l 7646 6189 l cp
eoclip
n 8325 5670 m
 7560 6300 l gs col-1 s gr gr

% arrowhead
n 7646 6189 m 7573 6289 l 7684 6235 l  col-1 s
% Polyline
gs  clippath
4605 3570 m 4665 3570 l 4665 3418 l 4635 3538 l 4605 3418 l cp
eoclip
n 4635 3105 m
 4635 3555 l gs col-1 s gr gr

% arrowhead
n 4605 3418 m 4635 3538 l 4665 3418 l  col-1 s
% Polyline
gs  clippath
4605 4695 m 4665 4695 l 4665 4543 l 4635 4663 l 4605 4543 l cp
eoclip
n 4635 4185 m
 4635 4680 l gs col-1 s gr gr

% arrowhead
n 4605 4543 m 4635 4663 l 4665 4543 l  col-1 s
% Polyline
15.000 slw
 [60] 0 sd
n 7875 8550 m 1575 8550 l 1575 2250 l 7875 2250 l
 cp gs col-1 s gr  [] 0 sd
% Polyline
n 9225 12375 m 225 12375 l 225 180 l 9225 180 l
 cp gs col-1 s gr 
/Times-Roman-iso ff 180.00 scf sf
1395 1080 m
gs 1 -1 sc (MACHINE) col-1 sh gr
/Times-Roman-iso ff 180.00 scf sf
3870 3960 m
gs 1 -1 sc (TYPE CHECKING) col-1 sh gr
/Times-Roman-iso ff 180.00 scf sf
3825 5130 m
gs 1 -1 sc (GENERATION de PO) col-1 sh gr
/Times-Roman-iso ff 180.00 scf sf
4185 2880 m
gs 1 -1 sc (PARSING) col-1 sh gr
/Times-Roman-iso ff 180.00 scf sf
5580 6705 m
gs 1 -1 sc (PROUVEURS) col-1 sh gr
/Times-Roman-iso ff 180.00 scf sf
2250 8055 m
gs 1 -1 sc (TRADUCTEURS) col-1 sh gr
/Times-Roman-iso ff 180.00 scf sf
1395 10125 m
gs 1 -1 sc (C) col-1 sh gr
/Times-Roman-iso ff 180.00 scf sf
3690 10125 m
gs 1 -1 sc (ADA) col-1 sh gr
/Times-Roman-iso ff 180.00 scf sf
7065 8325 m
gs 1 -1 sc (AtelierB) col-1 sh gr
/Times-Roman-iso ff 180.00 scf sf
450 12150 m
gs 1 -1 sc (BOULANGER Jean-louis) col-1 sh gr
$F2psEnd
rs
