%!PS-Adobe-2.0 EPSF-2.0
%%Title: Bdev.eps
%%Creator: fig2dev Version 3.2 Patchlevel 3c
%%CreationDate: Sun Dec  3 18:06:59 2000
%%For: atelierb@sphynx ()
%%BoundingBox: 0 0 400 300
%%Magnification: 1.0000
%%EndComments
/$F2psDict 200 dict def
$F2psDict begin
$F2psDict /mtrx matrix put
/col-1 {0 setgray} bind def
/col0 {0.000 0.000 0.000 srgb} bind def
/col1 {0.000 0.000 1.000 srgb} bind def
/col2 {0.000 1.000 0.000 srgb} bind def
/col3 {0.000 1.000 1.000 srgb} bind def
/col4 {1.000 0.000 0.000 srgb} bind def
/col5 {1.000 0.000 1.000 srgb} bind def
/col6 {1.000 1.000 0.000 srgb} bind def
/col7 {1.000 1.000 1.000 srgb} bind def
/col8 {0.000 0.000 0.560 srgb} bind def
/col9 {0.000 0.000 0.690 srgb} bind def
/col10 {0.000 0.000 0.820 srgb} bind def
/col11 {0.530 0.810 1.000 srgb} bind def
/col12 {0.000 0.560 0.000 srgb} bind def
/col13 {0.000 0.690 0.000 srgb} bind def
/col14 {0.000 0.820 0.000 srgb} bind def
/col15 {0.000 0.560 0.560 srgb} bind def
/col16 {0.000 0.690 0.690 srgb} bind def
/col17 {0.000 0.820 0.820 srgb} bind def
/col18 {0.560 0.000 0.000 srgb} bind def
/col19 {0.690 0.000 0.000 srgb} bind def
/col20 {0.820 0.000 0.000 srgb} bind def
/col21 {0.560 0.000 0.560 srgb} bind def
/col22 {0.690 0.000 0.690 srgb} bind def
/col23 {0.820 0.000 0.820 srgb} bind def
/col24 {0.500 0.190 0.000 srgb} bind def
/col25 {0.630 0.250 0.000 srgb} bind def
/col26 {0.750 0.380 0.000 srgb} bind def
/col27 {1.000 0.500 0.500 srgb} bind def
/col28 {1.000 0.630 0.630 srgb} bind def
/col29 {1.000 0.750 0.750 srgb} bind def
/col30 {1.000 0.880 0.880 srgb} bind def
/col31 {1.000 0.840 0.000 srgb} bind def

end
save
newpath 0 300 moveto 0 0 lineto 400 0 lineto 400 300 lineto closepath clip newpath
-114.0 326.0 translate
1 -1 scale

/cp {closepath} bind def
/ef {eofill} bind def
/gr {grestore} bind def
/gs {gsave} bind def
/sa {save} bind def
/rs {restore} bind def
/l {lineto} bind def
/m {moveto} bind def
/rm {rmoveto} bind def
/n {newpath} bind def
/s {stroke} bind def
/sh {show} bind def
/slc {setlinecap} bind def
/slj {setlinejoin} bind def
/slw {setlinewidth} bind def
/srgb {setrgbcolor} bind def
/rot {rotate} bind def
/sc {scale} bind def
/sd {setdash} bind def
/ff {findfont} bind def
/sf {setfont} bind def
/scf {scalefont} bind def
/sw {stringwidth} bind def
/tr {translate} bind def
/tnt {dup dup currentrgbcolor
  4 -2 roll dup 1 exch sub 3 -1 roll mul add
  4 -2 roll dup 1 exch sub 3 -1 roll mul add
  4 -2 roll dup 1 exch sub 3 -1 roll mul add srgb}
  bind def
/shd {dup dup currentrgbcolor 4 -2 roll mul 4 -2 roll mul
  4 -2 roll mul srgb} bind def
 /DrawEllipse {
	/endangle exch def
	/startangle exch def
	/yrad exch def
	/xrad exch def
	/y exch def
	/x exch def
	/savematrix mtrx currentmatrix def
	x y tr xrad yrad sc 0 0 1 startangle endangle arc
	closepath
	savematrix setmatrix
	} def

/$F2psBegin {$F2psDict begin /$F2psEnteredState save def} def
/$F2psEnd {$F2psEnteredState restore end} def

$F2psBegin
%%Page: 1 1
10 setmiterlimit
 0.06000 0.06000 sc
%
% Fig objects follow
%
7.500 slw
% Ellipse
n 5730 1350 780 900 0 360 DrawEllipse gs col-1 s gr

% Ellipse
n 3825 3840 900 1155 0 360 DrawEllipse gs col-1 s gr

% Ellipse
n 7875 3375 675 675 0 360 DrawEllipse gs col-1 s gr

% Polyline
n 5760 1125 m
 5760 1575 l gs col-1 s gr 
% Polyline
n 3780 3240 m
 3780 3555 l gs col-1 s gr 
% Polyline
n 3780 3915 m
 3780 4275 l gs col-1 s gr 
% Polyline
15.000 slw
gs  clippath
3794 2673 m 3828 2740 l 3997 2655 l 3873 2676 l 3963 2588 l cp
eoclip
n 5175 2025 m
 3825 2700 l gs col-1 s gr gr

% arrowhead
30.000 slw
n 3963 2588 m 3873 2676 l 3997 2655 l  col-1 s
% Polyline
15.000 slw
gs  clippath
7661 2755 m 7695 2688 l 7526 2603 l 7617 2691 l 7492 2670 l cp
eoclip
n 6315 2040 m
 7665 2715 l gs col-1 s gr gr

% arrowhead
30.000 slw
n 7492 2670 m 7617 2691 l 7526 2603 l  col-1 s
% Polyline
7.500 slw
n 7740 3195 m
 7740 3555 l gs col-1 s gr 
% Polyline
15.000 slw
gs  clippath
1904 5373 m 1938 5440 l 2107 5355 l 1983 5376 l 2073 5288 l cp
eoclip
n 3285 4725 m
 1935 5400 l gs col-1 s gr gr

% arrowhead
30.000 slw
n 2073 5288 m 1983 5376 l 2107 5355 l  col-1 s
% Polyline
15.000 slw
gs  clippath
5741 5425 m 5775 5358 l 5606 5273 l 5697 5361 l 5572 5340 l cp
eoclip
n 4395 4710 m
 5745 5385 l gs col-1 s gr gr

% arrowhead
30.000 slw
n 5572 5340 m 5697 5361 l 5606 5273 l  col-1 s
% Polyline
15.000 slw
gs  clippath
7837 5415 m 7912 5415 l 7912 5226 l 7875 5346 l 7837 5226 l cp
eoclip
n 7875 4005 m
 7875 5400 l gs col-1 s gr gr

% arrowhead
30.000 slw
n 7837 5226 m 7875 5346 l 7912 5226 l  col-1 s
% Polyline
15.000 slw
gs  clippath
3787 5415 m 3862 5415 l 3862 5226 l 3825 5346 l 3787 5226 l cp
eoclip
n 3825 4995 m
 3825 5400 l gs col-1 s gr gr

% arrowhead
30.000 slw
n 3787 5226 m 3825 5346 l 3862 5226 l  col-1 s
/Times-Roman ff 180.00 scf sf
5355 1080 m
gs 1 -1 sc (Main.mch) col-1 sh gr
/Times-Roman ff 180.00 scf sf
5400 1755 m
gs 1 -1 sc (Main.imp) col-1 sh gr
/Times-Roman ff 180.00 scf sf
3375 3150 m
gs 1 -1 sc (FCT1.mch) col-1 sh gr
/Times-Roman ff 180.00 scf sf
3375 3825 m
gs 1 -1 sc (FCT1_1.ref) col-1 sh gr
/Times-Roman ff 180.00 scf sf
3375 4500 m
gs 1 -1 sc (FCT1_2.imp) col-1 sh gr
/Times-Roman ff 180.00 scf sf
7380 3150 m
gs 1 -1 sc (FCT_2.mch) col-1 sh gr
/Times-Roman ff 180.00 scf sf
7425 3780 m
gs 1 -1 sc (FCT2_1.imp) col-1 sh gr
$F2psEnd
rs
