%!PS-Adobe-2.0 EPSF-2.0
%%Title: /tmp/xfig-fig000957
%%Creator: fig2dev Version 2.1.8 Patchlevel 0
%%CreationDate: Fri Apr 28 10:25:04 1995
%%For: boulang@mars (Jean-Louis_BOULANGER)
%%Orientation: Portrait
%%BoundingBox: 0 0 344 328
%%Pages: 0
%%EndComments
/$F2psDict 200 dict def 
$F2psDict begin
$F2psDict /mtrx matrix put
/l {lineto} bind def
/m {moveto} bind def
/s {stroke} bind def
/n {newpath} bind def
/gs {gsave} bind def
/gr {grestore} bind def
/clp {closepath} bind def
/graycol {dup dup currentrgbcolor 4 -2 roll mul 4 -2 roll mul
4 -2 roll mul setrgbcolor} bind def
/col-1 {} def
/col0 {0 0 0 setrgbcolor} bind def
/col1 {0 0 1 setrgbcolor} bind def
/col2 {0 1 0 setrgbcolor} bind def
/col3 {0 1 1 setrgbcolor} bind def
/col4 {1 0 0 setrgbcolor} bind def
/col5 {1 0 1 setrgbcolor} bind def
/col6 {1 1 0 setrgbcolor} bind def
/col7 {1 1 1 setrgbcolor} bind def
/col8 {.68 .85 .9 setrgbcolor} bind def
/col9 {0 .39 0 setrgbcolor} bind def
/col10 {.65 .17 .17 setrgbcolor} bind def
/col11 {1 .51 0 setrgbcolor} bind def
/col12 {.63 .13 .94 setrgbcolor} bind def
/col13 {1 .75 .8 setrgbcolor} bind def
/col14 {.7 .13 .13 setrgbcolor} bind def
/col15 {1 .84 0 setrgbcolor} bind def
	end
/$F2psBegin {$F2psDict begin /$F2psEnteredState save def} def
/$F2psEnd {$F2psEnteredState restore end} def
%%EndProlog

$F2psBegin
0 setlinecap 0 setlinejoin
-135.0 364.0 translate 0.900 -0.900 scale
0.500 setlinewidth
% Polyline
n 156 44 m 149 44 149 82 7 arcto 4 {pop} repeat 149 89 352 89 7 arcto 4 {pop} repeat 359 89 359 51 7 arcto 4 {pop} repeat 359 44 156 44 7 arcto 4 {pop} repeat clp gs col-1 s gr
% Polyline
n 156 134 m 149 134 149 172 7 arcto 4 {pop} repeat 149 179 352 179 7 arcto 4 {pop} repeat 359 179 359 141 7 arcto 4 {pop} repeat 359 134 156 134 7 arcto 4 {pop} repeat clp gs col-1 s gr
% Polyline
n 156 269 m 149 269 149 307 7 arcto 4 {pop} repeat 149 314 352 314 7 arcto 4 {pop} repeat 359 314 359 276 7 arcto 4 {pop} repeat 359 269 156 269 7 arcto 4 {pop} repeat clp gs col-1 s gr
% Polyline
n 156 359 m 149 359 149 397 7 arcto 4 {pop} repeat 149 404 352 404 7 arcto 4 {pop} repeat 359 404 359 366 7 arcto 4 {pop} repeat 359 359 156 359 7 arcto 4 {pop} repeat clp gs col-1 s gr
% Polyline
n 254 89 m 254 134 l gs col-1 s gr
n 256.000 126.000 m 254.000 134.000 l 252.000 126.000 l gs 2 setlinejoin col-1 s gr
% Polyline
n 254 314 m 254 359 l gs col-1 s gr
n 256.000 351.000 m 254.000 359.000 l 252.000 351.000 l gs 2 setlinejoin col-1 s gr
	[4.000000] 0 setdash
% Polyline
n 254 179 m 254 269 l gs col-1 s gr
	[] 0 setdash
n 256.000 261.000 m 254.000 269.000 l 252.000 261.000 l gs 2 setlinejoin col-1 s gr
% Polyline
n 389 65 m 461 65 l gs col-1 s gr
% Polyline
n 389 134 m 389 404 l gs col-1 s gr
% Polyline
n 389 269 m 464 269 l gs col-1 s gr
/Times-Roman findfont 12.00 scalefont setfont
203 71 m 
gs 1 -1 scale (Abstract specification) col-1 show gr
/Times-Roman findfont 12.00 scalefont setfont
224 161 m 
gs 1 -1 scale (Refinement 1) col-1 show gr
/Times-Roman findfont 12.00 scalefont setfont
224 296 m 
gs 1 -1 scale (Refinement n) col-1 show gr
/Times-Roman findfont 12.00 scalefont setfont
218 386 m 
gs 1 -1 scale (Implementation) col-1 show gr
/Times-Roman findfont 12.00 scalefont setfont
479 56 m 
gs 1 -1 scale (External) col-1 show gr
/Times-Roman findfont 12.00 scalefont setfont
479 75 m 
gs 1 -1 scale (verification) col-1 show gr
/Times-Roman findfont 12.00 scalefont setfont
479 263 m 
gs 1 -1 scale (Internal) col-1 show gr
/Times-Roman findfont 12.00 scalefont setfont
479 281 m 
gs 1 -1 scale (verification) col-1 show gr
$F2psEnd
