%!PS-Adobe-2.0 EPSF-2.0
%%Title: Graphe.fig
%%Creator: fig2dev Version 3.1 Patchlevel 2
%%CreationDate: Mon Oct 21 08:03:52 1996
%%For: boulang@venus (Jean Louis Boulanger)
%Magnification: 1.00
%%Orientation: Portrait
%%BoundingBox: 0 0 639 687
%%Pages: 0
%%BeginSetup
%%IncludeFeature: *PageSize A4
%%EndSetup
%%EndComments
/$F2psDict 200 dict def
$F2psDict begin
$F2psDict /mtrx matrix put
/col-1 {0 setgray} bind def
/col0 {0.000 0.000 0.000 srgb} bind def
/col1 {0.000 0.000 1.000 srgb} bind def
/col2 {0.000 1.000 0.000 srgb} bind def
/col3 {0.000 1.000 1.000 srgb} bind def
/col4 {1.000 0.000 0.000 srgb} bind def
/col5 {1.000 0.000 1.000 srgb} bind def
/col6 {1.000 1.000 0.000 srgb} bind def
/col7 {1.000 1.000 1.000 srgb} bind def
/col8 {0.000 0.000 0.560 srgb} bind def
/col9 {0.000 0.000 0.690 srgb} bind def
/col10 {0.000 0.000 0.820 srgb} bind def
/col11 {0.530 0.810 1.000 srgb} bind def
/col12 {0.000 0.560 0.000 srgb} bind def
/col13 {0.000 0.690 0.000 srgb} bind def
/col14 {0.000 0.820 0.000 srgb} bind def
/col15 {0.000 0.560 0.560 srgb} bind def
/col16 {0.000 0.690 0.690 srgb} bind def
/col17 {0.000 0.820 0.820 srgb} bind def
/col18 {0.560 0.000 0.000 srgb} bind def
/col19 {0.690 0.000 0.000 srgb} bind def
/col20 {0.820 0.000 0.000 srgb} bind def
/col21 {0.560 0.000 0.560 srgb} bind def
/col22 {0.690 0.000 0.690 srgb} bind def
/col23 {0.820 0.000 0.820 srgb} bind def
/col24 {0.500 0.190 0.000 srgb} bind def
/col25 {0.630 0.250 0.000 srgb} bind def
/col26 {0.750 0.380 0.000 srgb} bind def
/col27 {1.000 0.500 0.500 srgb} bind def
/col28 {1.000 0.630 0.630 srgb} bind def
/col29 {1.000 0.750 0.750 srgb} bind def
/col30 {1.000 0.880 0.880 srgb} bind def
/col31 {1.000 0.840 0.000 srgb} bind def

end
save
-107.0 740.0 translate
1 -1 scale

/cp {closepath} bind def
/ef {eofill} bind def
/gr {grestore} bind def
/gs {gsave} bind def
/sa {save} bind def
/rs {restore} bind def
/l {lineto} bind def
/m {moveto} bind def
/rm {rmoveto} bind def
/n {newpath} bind def
/s {stroke} bind def
/sh {show} bind def
/slc {setlinecap} bind def
/slj {setlinejoin} bind def
/slw {setlinewidth} bind def
/srgb {setrgbcolor} bind def
/rot {rotate} bind def
/sc {scale} bind def
/sd {setdash} bind def
/ff {findfont} bind def
/sf {setfont} bind def
/scf {scalefont} bind def
/sw {stringwidth} bind def
/tr {translate} bind def
/tnt {dup dup currentrgbcolor
  4 -2 roll dup 1 exch sub 3 -1 roll mul add
  4 -2 roll dup 1 exch sub 3 -1 roll mul add
  4 -2 roll dup 1 exch sub 3 -1 roll mul add srgb}
  bind def
/shd {dup dup currentrgbcolor 4 -2 roll mul 4 -2 roll mul
  4 -2 roll mul srgb} bind def
/$F2psBegin {$F2psDict begin /$F2psEnteredState save def} def
/$F2psEnd {$F2psEnteredState restore end} def
%%EndProlog

$F2psBegin
10 setmiterlimit
n 0 842 m 0 0 l 595 0 l 595 842 l cp clip
 0.06000 0.06000 sc
7.500 slw
% Polyline
n 5400 4500 m 6600 4500 l 6600 5100 l 5400 5100 l cp gs col-1 s gr 
/Times-Roman ff 180.00 scf sf
5850 4875 m
gs 1 -1 sc (States) col-1 sh gr
% Polyline
n 5400 6300 m 6600 6300 l 6600 6900 l 5400 6900 l cp gs col-1 s gr 
% Polyline
 [66.7] 0 sd
gs  clippath
5970 5247 m 6000 5127 l 6030 5247 l 6030 5085 l 5970 5085 l  cp clip
n 6000 6300 m 6000 5100 l gs col-1 s gr gr
 [] 0 sd
% arrowhead
n 5970 5247 m 6000 5127 l 6030 5247 l  col-1 s
% Polyline
n 5205 4200 m 5100 4200 5100 7095 105 arcto 4 {pop} repeat
  5100 7200 6795 7200 105 arcto 4 {pop} repeat
  6900 7200 6900 4305 105 arcto 4 {pop} repeat
  6900 4200 5205 4200 105 arcto 4 {pop} repeat
 cp gs col-1 s gr 
/Times-Roman ff 180.00 scf sf
5700 6675 m
gs 1 -1 sc (States_i) col-1 sh gr
% Polyline
n 2100 4500 m 3600 4500 l 3600 5100 l 2100 5100 l cp gs col-1 s gr 
/Times-Roman ff 180.00 scf sf
2400 4800 m
gs 1 -1 sc (Automata_info) col-1 sh gr
% Polyline
n 8400 4500 m 9900 4500 l 9900 5100 l 8400 5100 l cp gs col-1 s gr 
/Times-Roman ff 180.00 scf sf
8775 4875 m
gs 1 -1 sc (Transitions) col-1 sh gr
% Polyline
n 8400 6300 m 9900 6300 l 9900 6900 l 8400 6900 l cp gs col-1 s gr 
/Times-Roman ff 180.00 scf sf
8775 6675 m
gs 1 -1 sc (Transitions) col-1 sh gr
% Polyline
n 3000 8700 m 3900 8700 l 3900 9300 l 3000 9300 l cp gs col-1 s gr 
/Times-Roman ff 180.00 scf sf
3300 9075 m
gs 1 -1 sc (Pool) col-1 sh gr
% Polyline
n 3000 9900 m 3900 9900 l 3900 10500 l 3000 10500 l cp gs col-1 s gr 
/Times-Roman ff 180.00 scf sf
3300 10275 m
gs 1 -1 sc (Pool) col-1 sh gr
% Polyline
 [66.7] 0 sd
gs  clippath
3420 9447 m 3450 9327 l 3480 9447 l 3480 9285 l 3420 9285 l  cp clip
n 3450 9900 m 3450 9300 l gs col-1 s gr gr
 [] 0 sd
% arrowhead
n 3420 9447 m 3450 9327 l 3480 9447 l  col-1 s
% Polyline
n 2805 8400 m 2700 8400 2700 10695 105 arcto 4 {pop} repeat
  2700 10800 4095 10800 105 arcto 4 {pop} repeat
  4200 10800 4200 8505 105 arcto 4 {pop} repeat
  4200 8400 2805 8400 105 arcto 4 {pop} repeat
 cp gs col-1 s gr 
% Polyline
n 5400 1200 m 6600 1200 l 6600 1800 l 5400 1800 l cp gs col-1 s gr 
% Polyline
n 5400 2400 m 6600 2400 l 6600 3000 l 5400 3000 l cp gs col-1 s gr 
% Polyline
gs  clippath
5970 1947 m 6000 1827 l 6030 1947 l 6030 1785 l 5970 1785 l  cp clip
n 6000 2400 m 6000 1800 l gs col-1 s gr gr

% arrowhead
n 5970 1947 m 6000 1827 l 6030 1947 l  col-1 s
% Polyline
n 5205 900 m 5100 900 5100 3195 105 arcto 4 {pop} repeat
  5100 3300 6795 3300 105 arcto 4 {pop} repeat
  6900 3300 6900 1005 105 arcto 4 {pop} repeat
  6900 900 5205 900 105 arcto 4 {pop} repeat
 cp gs col-1 s gr 
% Polyline
n 1905 4200 m 1800 4200 1800 7095 105 arcto 4 {pop} repeat
  1800 7200 3795 7200 105 arcto 4 {pop} repeat
  3900 7200 3900 4305 105 arcto 4 {pop} repeat
  3900 4200 1905 4200 105 arcto 4 {pop} repeat
 cp gs col-1 s gr 
% Polyline
n 2100 6300 m 3600 6300 l 3600 6900 l 2100 6900 l cp gs col-1 s gr 
% Polyline
 [66.7] 0 sd
gs  clippath
2820 5247 m 2850 5127 l 2880 5247 l 2880 5085 l 2820 5085 l  cp clip
n 2850 6300 m 2850 5100 l gs col-1 s gr gr
 [] 0 sd
% arrowhead
n 2820 5247 m 2850 5127 l 2880 5247 l  col-1 s
% Polyline
 [66.7] 0 sd
gs  clippath
9120 5247 m 9150 5127 l 9180 5247 l 9180 5085 l 9120 5085 l  cp clip
n 9150 6300 m 9150 5100 l gs col-1 s gr gr
 [] 0 sd
% arrowhead
n 9120 5247 m 9150 5127 l 9180 5247 l  col-1 s
% Polyline
n 8205 4200 m 8100 4200 8100 7095 105 arcto 4 {pop} repeat
  8100 7200 10095 7200 105 arcto 4 {pop} repeat
  10200 7200 10200 4305 105 arcto 4 {pop} repeat
  10200 4200 8205 4200 105 arcto 4 {pop} repeat
 cp gs col-1 s gr 
15.000 slw
% Polyline
gs  clippath
3010 4165 m 2887 4184 l 2986 4110 l 2811 4184 l 2834 4239 l  cp clip
n 5700 3000 m 2850 4200 l gs col-1 s gr gr

% arrowhead
7.500 slw
n 3010 4165 m 2887 4184 l 2986 4110 l 2998 4138 l 3010 4165 l  cp gs col7 1.00 shd ef gr  col-1 s
15.000 slw
% Polyline
gs  clippath
6030 4040 m 6000 4159 l 5970 4040 l 5970 4230 l 6030 4230 l  cp clip
n 6000 3000 m 6000 4200 l gs col-1 s gr gr

% arrowhead
7.500 slw
n 6030 4040 m 6000 4159 l 5970 4040 l 6000 4040 l 6030 4040 l  cp gs col7 1.00 shd ef gr  col-1 s
15.000 slw
% Polyline
gs  clippath
9014 4110 m 9112 4184 l 8990 4165 l 9166 4239 l 9189 4184 l  cp clip
n 6300 3000 m 9150 4200 l gs col-1 s gr gr

% arrowhead
7.500 slw
n 9014 4110 m 9112 4184 l 8990 4165 l 9002 4138 l 9014 4110 l  cp gs col7 1.00 shd ef gr  col-1 s
7.500 slw
% Polyline
gs  clippath
3015 8251 m 2997 8373 l 2956 8257 l 2972 8418 l 3031 8412 l  cp clip
n 2850 6900 m 3000 8400 l gs col-1 s gr gr

% arrowhead
n 3015 8251 m 2997 8373 l 2956 8257 l  col-1 s
% Polyline
gs  clippath
3741 8348 m 3622 8385 l 3709 8297 l 3571 8383 l 3603 8433 l  cp clip
n 6000 6900 m 3600 8400 l gs col-1 s gr gr

% arrowhead
n 3741 8348 m 3622 8385 l 3709 8297 l  col-1 s
% Polyline
gs  clippath
4050 8388 m 3925 8392 l 4033 8331 l 3877 8375 l 3894 8433 l  cp clip
n 9150 6900 m 3900 8400 l gs col-1 s gr gr

% arrowhead
n 4050 8388 m 3925 8392 l 4033 8331 l  col-1 s
% Polyline
n 7005 8400 m 6900 8400 6900 10695 105 arcto 4 {pop} repeat
  6900 10800 8595 10800 105 arcto 4 {pop} repeat
  8700 10800 8700 8505 105 arcto 4 {pop} repeat
  8700 8400 7005 8400 105 arcto 4 {pop} repeat
 cp gs col-1 s gr 
% Polyline
n 7200 8700 m 8400 8700 l 8400 9300 l 7200 9300 l cp gs col-1 s gr 
% Polyline
n 7200 9900 m 8400 9900 l 8400 10500 l 7200 10500 l cp gs col-1 s gr 
% Polyline
 [66.7] 0 sd
gs  clippath
7770 9447 m 7800 9327 l 7830 9447 l 7830 9285 l 7770 9285 l  cp clip
n 7800 9900 m 7800 9300 l gs col-1 s gr gr
 [] 0 sd
% arrowhead
n 7770 9447 m 7800 9327 l 7830 9447 l  col-1 s
% Polyline
gs  clippath
7417 8275 m 7480 8380 l 7375 8317 l 7489 8432 l 7532 8389 l  cp clip
n 6000 6900 m 7500 8400 l gs col-1 s gr gr

% arrowhead
n 7417 8275 m 7480 8380 l 7375 8317 l  col-1 s
% Polyline
gs  clippath
8209 8297 m 8115 8377 l 8160 8262 l 8067 8395 l 8116 8429 l  cp clip
n 9150 6900 m 8100 8400 l gs col-1 s gr gr

% arrowhead
n 8209 8297 m 8115 8377 l 8160 8262 l  col-1 s
% Polyline
gs  clippath
10711 8279 m 10780 8381 l 10671 8323 l 10791 8432 l 10831 8388 l  cp clip
n 9150 6900 m 10800 8400 l gs col-1 s gr gr

% arrowhead
n 10711 8279 m 10780 8381 l 10671 8323 l  col-1 s
% Polyline
gs  clippath
10370 8325 m 10474 8391 l 10351 8382 l 10505 8433 l 10524 8376 l  cp clip
n 6000 6900 m 10500 8400 l gs col-1 s gr gr

% arrowhead
n 10370 8325 m 10474 8391 l 10351 8382 l  col-1 s
% Polyline
gs  clippath
4440 11862 m 4484 11977 l 4391 11897 l 4484 12029 l 4533 11995 l  cp clip
n 3450 10500 m 4500 12000 l gs col-1 s gr gr

% arrowhead
n 4440 11862 m 4484 11977 l 4391 11897 l  col-1 s
% Polyline
gs  clippath
6425 11917 m 6319 11980 l 6383 11875 l 6268 11989 l 6311 12032 l  cp clip
n 7800 10500 m 6300 12000 l gs col-1 s gr gr

% arrowhead
n 6425 11917 m 6319 11980 l 6383 11875 l  col-1 s
/Times-Roman ff 180.00 scf sf
5700 1500 m
gs 1 -1 sc (Automate) col-1 sh gr
/Times-Roman ff 180.00 scf sf
5700 2700 m
gs 1 -1 sc (Automate) col-1 sh gr
/Times-Roman ff 180.00 scf sf
2400 6600 m
gs 1 -1 sc (Automata_info_i) col-1 sh gr
/Times-Roman ff 180.00 scf sf
7350 9075 m
gs 1 -1 sc (Array_init) col-1 sh gr
/Times-Roman ff 180.00 scf sf
7425 10275 m
gs 1 -1 sc (Array_init) col-1 sh gr
/Times-Roman ff 180.00 scf sf
10500 8700 m
gs 1 -1 sc (BASIC_ARRAY_VAR\(\)) col-1 sh gr
/Times-Roman ff 180.00 scf sf
4500 12300 m
gs 1 -1 sc (BASIC_ARRAY_VAR\(\)) col-1 sh gr
$F2psEnd
rs
