%!PS-Adobe-2.0 EPSF-2.0
%%Title: ProjetStructureLogique.eps
%%Creator: fig2dev Version 3.2 Patchlevel 3c
%%CreationDate: Sun Nov 12 23:08:50 2000
%%For: atelierb@sphynx ()
%%BoundingBox: 0 0 516 543
%%Magnification: 1.0000
%%EndComments
/$F2psDict 200 dict def
$F2psDict begin
$F2psDict /mtrx matrix put
/col-1 {0 setgray} bind def
/col0 {0.000 0.000 0.000 srgb} bind def
/col1 {0.000 0.000 1.000 srgb} bind def
/col2 {0.000 1.000 0.000 srgb} bind def
/col3 {0.000 1.000 1.000 srgb} bind def
/col4 {1.000 0.000 0.000 srgb} bind def
/col5 {1.000 0.000 1.000 srgb} bind def
/col6 {1.000 1.000 0.000 srgb} bind def
/col7 {1.000 1.000 1.000 srgb} bind def
/col8 {0.000 0.000 0.560 srgb} bind def
/col9 {0.000 0.000 0.690 srgb} bind def
/col10 {0.000 0.000 0.820 srgb} bind def
/col11 {0.530 0.810 1.000 srgb} bind def
/col12 {0.000 0.560 0.000 srgb} bind def
/col13 {0.000 0.690 0.000 srgb} bind def
/col14 {0.000 0.820 0.000 srgb} bind def
/col15 {0.000 0.560 0.560 srgb} bind def
/col16 {0.000 0.690 0.690 srgb} bind def
/col17 {0.000 0.820 0.820 srgb} bind def
/col18 {0.560 0.000 0.000 srgb} bind def
/col19 {0.690 0.000 0.000 srgb} bind def
/col20 {0.820 0.000 0.000 srgb} bind def
/col21 {0.560 0.000 0.560 srgb} bind def
/col22 {0.690 0.000 0.690 srgb} bind def
/col23 {0.820 0.000 0.820 srgb} bind def
/col24 {0.500 0.190 0.000 srgb} bind def
/col25 {0.630 0.250 0.000 srgb} bind def
/col26 {0.750 0.380 0.000 srgb} bind def
/col27 {1.000 0.500 0.500 srgb} bind def
/col28 {1.000 0.630 0.630 srgb} bind def
/col29 {1.000 0.750 0.750 srgb} bind def
/col30 {1.000 0.880 0.880 srgb} bind def
/col31 {1.000 0.840 0.000 srgb} bind def

end
save
newpath 0 543 moveto 0 0 lineto 516 0 lineto 516 543 lineto closepath clip newpath
-26.0 555.0 translate
1 -1 scale

/cp {closepath} bind def
/ef {eofill} bind def
/gr {grestore} bind def
/gs {gsave} bind def
/sa {save} bind def
/rs {restore} bind def
/l {lineto} bind def
/m {moveto} bind def
/rm {rmoveto} bind def
/n {newpath} bind def
/s {stroke} bind def
/sh {show} bind def
/slc {setlinecap} bind def
/slj {setlinejoin} bind def
/slw {setlinewidth} bind def
/srgb {setrgbcolor} bind def
/rot {rotate} bind def
/sc {scale} bind def
/sd {setdash} bind def
/ff {findfont} bind def
/sf {setfont} bind def
/scf {scalefont} bind def
/sw {stringwidth} bind def
/tr {translate} bind def
/tnt {dup dup currentrgbcolor
  4 -2 roll dup 1 exch sub 3 -1 roll mul add
  4 -2 roll dup 1 exch sub 3 -1 roll mul add
  4 -2 roll dup 1 exch sub 3 -1 roll mul add srgb}
  bind def
/shd {dup dup currentrgbcolor 4 -2 roll mul 4 -2 roll mul
  4 -2 roll mul srgb} bind def
/reencdict 12 dict def /ReEncode { reencdict begin
/newcodesandnames exch def /newfontname exch def /basefontname exch def
/basefontdict basefontname findfont def /newfont basefontdict maxlength dict def
basefontdict { exch dup /FID ne { dup /Encoding eq
{ exch dup length array copy newfont 3 1 roll put }
{ exch newfont 3 1 roll put } ifelse } { pop pop } ifelse } forall
newfont /FontName newfontname put newcodesandnames aload pop
128 1 255 { newfont /Encoding get exch /.notdef put } for
newcodesandnames length 2 idiv { newfont /Encoding get 3 1 roll put } repeat
newfontname newfont definefont pop end } def
/isovec [
8#055 /minus 8#200 /grave 8#201 /acute 8#202 /circumflex 8#203 /tilde
8#204 /macron 8#205 /breve 8#206 /dotaccent 8#207 /dieresis
8#210 /ring 8#211 /cedilla 8#212 /hungarumlaut 8#213 /ogonek 8#214 /caron
8#220 /dotlessi 8#230 /oe 8#231 /OE
8#240 /space 8#241 /exclamdown 8#242 /cent 8#243 /sterling
8#244 /currency 8#245 /yen 8#246 /brokenbar 8#247 /section 8#250 /dieresis
8#251 /copyright 8#252 /ordfeminine 8#253 /guillemotleft 8#254 /logicalnot
8#255 /hyphen 8#256 /registered 8#257 /macron 8#260 /degree 8#261 /plusminus
8#262 /twosuperior 8#263 /threesuperior 8#264 /acute 8#265 /mu 8#266 /paragraph
8#267 /periodcentered 8#270 /cedilla 8#271 /onesuperior 8#272 /ordmasculine
8#273 /guillemotright 8#274 /onequarter 8#275 /onehalf
8#276 /threequarters 8#277 /questiondown 8#300 /Agrave 8#301 /Aacute
8#302 /Acircumflex 8#303 /Atilde 8#304 /Adieresis 8#305 /Aring
8#306 /AE 8#307 /Ccedilla 8#310 /Egrave 8#311 /Eacute
8#312 /Ecircumflex 8#313 /Edieresis 8#314 /Igrave 8#315 /Iacute
8#316 /Icircumflex 8#317 /Idieresis 8#320 /Eth 8#321 /Ntilde 8#322 /Ograve
8#323 /Oacute 8#324 /Ocircumflex 8#325 /Otilde 8#326 /Odieresis 8#327 /multiply
8#330 /Oslash 8#331 /Ugrave 8#332 /Uacute 8#333 /Ucircumflex
8#334 /Udieresis 8#335 /Yacute 8#336 /Thorn 8#337 /germandbls 8#340 /agrave
8#341 /aacute 8#342 /acircumflex 8#343 /atilde 8#344 /adieresis 8#345 /aring
8#346 /ae 8#347 /ccedilla 8#350 /egrave 8#351 /eacute
8#352 /ecircumflex 8#353 /edieresis 8#354 /igrave 8#355 /iacute
8#356 /icircumflex 8#357 /idieresis 8#360 /eth 8#361 /ntilde 8#362 /ograve
8#363 /oacute 8#364 /ocircumflex 8#365 /otilde 8#366 /odieresis 8#367 /divide
8#370 /oslash 8#371 /ugrave 8#372 /uacute 8#373 /ucircumflex
8#374 /udieresis 8#375 /yacute 8#376 /thorn 8#377 /ydieresis] def
/Times-Roman /Times-Roman-iso isovec ReEncode
 /DrawEllipse {
	/endangle exch def
	/startangle exch def
	/yrad exch def
	/xrad exch def
	/y exch def
	/x exch def
	/savematrix mtrx currentmatrix def
	x y tr xrad yrad sc 0 0 1 startangle endangle arc
	closepath
	savematrix setmatrix
	} def

/$F2psBegin {$F2psDict begin /$F2psEnteredState save def} def
/$F2psEnd {$F2psEnteredState restore end} def

$F2psBegin
%%Page: 1 1
10 setmiterlimit
 0.06000 0.06000 sc
%
% Fig objects follow
%
% Polyline
15.000 slw
n 2475 6975 m 2475 6525 l 2025 6525 l 2025 6975 l
 cp gs col-1 s gr 
% Polyline
n 2025 6525 m 2475 6525 l 2250 6975 l
 cp gs col-1 s gr 
% Polyline
n 3375 6960 m 3375 6510 l 2925 6510 l 2925 6960 l
 cp gs col-1 s gr 
% Polyline
n 2925 6510 m 3375 6510 l 3150 6960 l
 cp gs col-1 s gr 
% Polyline
n 4290 6960 m 4290 6510 l 3840 6510 l 3840 6960 l
 cp gs col-1 s gr 
% Polyline
n 3840 6510 m 4290 6510 l 4065 6960 l
 cp gs col-1 s gr 
% Polyline
n 5190 6960 m 5190 6510 l 4740 6510 l 4740 6960 l
 cp gs col-1 s gr 
% Polyline
n 4740 6510 m 5190 6510 l 4965 6960 l
 cp gs col-1 s gr 
% Polyline
n 6990 6960 m 6990 6510 l 6540 6510 l 6540 6960 l
 cp gs col-1 s gr 
% Polyline
n 6540 6510 m 6990 6510 l 6765 6960 l
 cp gs col-1 s gr 
% Polyline
n 7890 6960 m 7890 6510 l 7440 6510 l 7440 6960 l
 cp gs col-1 s gr 
% Polyline
n 7440 6510 m 7890 6510 l 7665 6960 l
 cp gs col-1 s gr 
% Polyline
n 8790 6960 m 8790 6510 l 8340 6510 l 8340 6960 l
 cp gs col-1 s gr 
% Polyline
n 8340 6510 m 8790 6510 l 8565 6960 l
 cp gs col-1 s gr 
% Polyline
n 2475 9000 m 2475 8325 l 2025 8325 l 2025 9000 l
 cp gs col-1 s gr 
% Polyline
n 3375 9000 m 3375 8325 l 2925 8325 l 2925 9000 l
 cp gs col-1 s gr 
% Polyline
n 4275 9000 m 4275 8325 l 3825 8325 l 3825 9000 l
 cp gs col-1 s gr 
% Polyline
n 5175 9000 m 5175 8325 l 4725 8325 l 4725 9000 l
 cp gs col-1 s gr 
% Polyline
n 6975 9000 m 6975 8325 l 6525 8325 l 6525 9000 l
 cp gs col-1 s gr 
% Polyline
n 7875 9000 m 7875 8325 l 7425 8325 l 7425 9000 l
 cp gs col-1 s gr 
% Polyline
n 8775 9000 m 8775 8325 l 8325 8325 l 8325 9000 l
 cp gs col-1 s gr 
7.500 slw
% Ellipse
n 1110 615 195 135 0 360 DrawEllipse gs col-1 s gr

% Polyline
n 1320 1545 m 1320 1275 l 915 1275 l 915 1545 l
 cp gs col-1 s gr 
% Polyline
15.000 slw
n 900 360 m 795 360 795 1560 105 arcto 4 {pop} repeat
  795 1665 1335 1665 105 arcto 4 {pop} repeat
  1440 1665 1440 465 105 arcto 4 {pop} repeat
  1440 360 900 360 105 arcto 4 {pop} repeat
 cp gs col-1 s gr 
% Polyline
7.500 slw
n 1020 885 m 915 885 915 1035 105 arcto 4 {pop} repeat
  915 1140 1215 1140 105 arcto 4 {pop} repeat
  1320 1140 1320 990 105 arcto 4 {pop} repeat
  1320 885 1020 885 105 arcto 4 {pop} repeat
 cp gs col-1 s gr 
/Times-Roman-iso ff 270.00 scf sf
705 2250 m
gs 1 -1 sc (module) col-1 sh gr
% Polyline
15.000 slw
n 1905 7425 m 1800 7425 1800 7770 105 arcto 4 {pop} repeat
  1800 7875 8895 7875 105 arcto 4 {pop} repeat
  9000 7875 9000 7530 105 arcto 4 {pop} repeat
  9000 7425 1905 7425 105 arcto 4 {pop} repeat
 cp gs col-1 s gr 
/Times-Roman-iso ff 270.00 scf sf
2835 7770 m
gs 1 -1 sc (Traduction automatique vers le langage source) col-1 sh gr
7.500 slw
% Ellipse
n 5865 570 225 105 0 360 DrawEllipse gs col-1 s gr

% Polyline
n 5745 915 m 5640 915 5640 1035 105 arcto 4 {pop} repeat
  5640 1140 5985 1140 105 arcto 4 {pop} repeat
  6090 1140 6090 1020 105 arcto 4 {pop} repeat
  6090 915 5745 915 105 arcto 4 {pop} repeat
 cp gs col-1 s gr 
% Polyline
n 6090 1590 m 6090 1365 l 5640 1365 l 5640 1590 l
 cp gs col-1 s gr 
% Polyline
 [60] 0 sd
gs  clippath
5827 930 m 5902 930 l 5902 765 l 5865 900 l 5827 765 l cp
eoclip
n 5865 690 m
 5865 915 l gs col-1 s gr gr
 [] 0 sd
% arrowhead
n 5827 765 m 5865 900 l 5902 765 l  col-1 s
% Polyline
 [60] 0 sd
gs  clippath
5827 1380 m 5902 1380 l 5902 1215 l 5865 1350 l 5827 1215 l cp
eoclip
n 5865 1140 m
 5865 1365 l gs col-1 s gr gr
 [] 0 sd
% arrowhead
n 5827 1215 m 5865 1350 l 5902 1215 l  col-1 s
% Polyline
n 5861 1365 m 5869 1365 l gs col-1 s gr
% Polyline
n 5861 1365 m 5869 1365 l gs col-1 s gr
% Polyline
15.000 slw
n 5520 240 m 5415 240 5415 1710 105 arcto 4 {pop} repeat
  5415 1815 6210 1815 105 arcto 4 {pop} repeat
  6315 1815 6315 345 105 arcto 4 {pop} repeat
  6315 240 5520 240 105 arcto 4 {pop} repeat
 cp gs col-1 s gr 
7.500 slw
% Ellipse
n 4035 2565 225 105 0 360 DrawEllipse gs col-1 s gr

% Polyline
n 3915 2910 m 3810 2910 3810 3030 105 arcto 4 {pop} repeat
  3810 3135 4155 3135 105 arcto 4 {pop} repeat
  4260 3135 4260 3015 105 arcto 4 {pop} repeat
  4260 2910 3915 2910 105 arcto 4 {pop} repeat
 cp gs col-1 s gr 
% Polyline
n 4260 3585 m 4260 3360 l 3810 3360 l 3810 3585 l
 cp gs col-1 s gr 
% Polyline
 [60] 0 sd
gs  clippath
3997 2925 m 4072 2925 l 4072 2760 l 4035 2895 l 3997 2760 l cp
eoclip
n 4035 2685 m
 4035 2910 l gs col-1 s gr gr
 [] 0 sd
% arrowhead
n 3997 2760 m 4035 2895 l 4072 2760 l  col-1 s
% Polyline
 [60] 0 sd
gs  clippath
3997 3375 m 4072 3375 l 4072 3210 l 4035 3345 l 3997 3210 l cp
eoclip
n 4035 3135 m
 4035 3360 l gs col-1 s gr gr
 [] 0 sd
% arrowhead
n 3997 3210 m 4035 3345 l 4072 3210 l  col-1 s
% Polyline
n 4031 3360 m 4039 3360 l gs col-1 s gr
% Polyline
n 4031 3360 m 4039 3360 l gs col-1 s gr
% Polyline
15.000 slw
n 3690 2235 m 3585 2235 3585 3705 105 arcto 4 {pop} repeat
  3585 3810 4380 3810 105 arcto 4 {pop} repeat
  4485 3810 4485 2340 105 arcto 4 {pop} repeat
  4485 2235 3690 2235 105 arcto 4 {pop} repeat
 cp gs col-1 s gr 
7.500 slw
% Ellipse
n 7635 2565 225 105 0 360 DrawEllipse gs col-1 s gr

% Polyline
n 7515 2910 m 7410 2910 7410 3030 105 arcto 4 {pop} repeat
  7410 3135 7755 3135 105 arcto 4 {pop} repeat
  7860 3135 7860 3015 105 arcto 4 {pop} repeat
  7860 2910 7515 2910 105 arcto 4 {pop} repeat
 cp gs col-1 s gr 
% Polyline
n 7860 3585 m 7860 3360 l 7410 3360 l 7410 3585 l
 cp gs col-1 s gr 
% Polyline
 [60] 0 sd
gs  clippath
7597 2925 m 7672 2925 l 7672 2760 l 7635 2895 l 7597 2760 l cp
eoclip
n 7635 2685 m
 7635 2910 l gs col-1 s gr gr
 [] 0 sd
% arrowhead
n 7597 2760 m 7635 2895 l 7672 2760 l  col-1 s
% Polyline
 [60] 0 sd
gs  clippath
7597 3375 m 7672 3375 l 7672 3210 l 7635 3345 l 7597 3210 l cp
eoclip
n 7635 3135 m
 7635 3360 l gs col-1 s gr gr
 [] 0 sd
% arrowhead
n 7597 3210 m 7635 3345 l 7672 3210 l  col-1 s
% Polyline
n 7631 3360 m 7639 3360 l gs col-1 s gr
% Polyline
n 7631 3360 m 7639 3360 l gs col-1 s gr
% Polyline
15.000 slw
n 7290 2235 m 7185 2235 7185 3705 105 arcto 4 {pop} repeat
  7185 3810 7980 3810 105 arcto 4 {pop} repeat
  8085 3810 8085 2340 105 arcto 4 {pop} repeat
  8085 2235 7290 2235 105 arcto 4 {pop} repeat
 cp gs col-1 s gr 
7.500 slw
% Ellipse
n 3135 4590 225 105 0 360 DrawEllipse gs col-1 s gr

% Polyline
n 3015 4935 m 2910 4935 2910 5055 105 arcto 4 {pop} repeat
  2910 5160 3255 5160 105 arcto 4 {pop} repeat
  3360 5160 3360 5040 105 arcto 4 {pop} repeat
  3360 4935 3015 4935 105 arcto 4 {pop} repeat
 cp gs col-1 s gr 
% Polyline
n 3360 5610 m 3360 5385 l 2910 5385 l 2910 5610 l
 cp gs col-1 s gr 
% Polyline
 [60] 0 sd
gs  clippath
3097 4950 m 3172 4950 l 3172 4785 l 3135 4920 l 3097 4785 l cp
eoclip
n 3135 4710 m
 3135 4935 l gs col-1 s gr gr
 [] 0 sd
% arrowhead
n 3097 4785 m 3135 4920 l 3172 4785 l  col-1 s
% Polyline
 [60] 0 sd
gs  clippath
3097 5400 m 3172 5400 l 3172 5235 l 3135 5370 l 3097 5235 l cp
eoclip
n 3135 5160 m
 3135 5385 l gs col-1 s gr gr
 [] 0 sd
% arrowhead
n 3097 5235 m 3135 5370 l 3172 5235 l  col-1 s
% Polyline
n 3131 5385 m 3139 5385 l gs col-1 s gr
% Polyline
n 3131 5385 m 3139 5385 l gs col-1 s gr
% Polyline
15.000 slw
n 2790 4260 m 2685 4260 2685 5730 105 arcto 4 {pop} repeat
  2685 5835 3480 5835 105 arcto 4 {pop} repeat
  3585 5835 3585 4365 105 arcto 4 {pop} repeat
  3585 4260 2790 4260 105 arcto 4 {pop} repeat
 cp gs col-1 s gr 
7.500 slw
% Ellipse
n 4935 4590 225 105 0 360 DrawEllipse gs col-1 s gr

% Polyline
n 4815 4935 m 4710 4935 4710 5055 105 arcto 4 {pop} repeat
  4710 5160 5055 5160 105 arcto 4 {pop} repeat
  5160 5160 5160 5040 105 arcto 4 {pop} repeat
  5160 4935 4815 4935 105 arcto 4 {pop} repeat
 cp gs col-1 s gr 
% Polyline
n 5160 5610 m 5160 5385 l 4710 5385 l 4710 5610 l
 cp gs col-1 s gr 
% Polyline
 [60] 0 sd
gs  clippath
4897 4950 m 4972 4950 l 4972 4785 l 4935 4920 l 4897 4785 l cp
eoclip
n 4935 4710 m
 4935 4935 l gs col-1 s gr gr
 [] 0 sd
% arrowhead
n 4897 4785 m 4935 4920 l 4972 4785 l  col-1 s
% Polyline
 [60] 0 sd
gs  clippath
4897 5400 m 4972 5400 l 4972 5235 l 4935 5370 l 4897 5235 l cp
eoclip
n 4935 5160 m
 4935 5385 l gs col-1 s gr gr
 [] 0 sd
% arrowhead
n 4897 5235 m 4935 5370 l 4972 5235 l  col-1 s
% Polyline
n 4931 5385 m 4939 5385 l gs col-1 s gr
% Polyline
n 4931 5385 m 4939 5385 l gs col-1 s gr
% Polyline
15.000 slw
n 4590 4260 m 4485 4260 4485 5730 105 arcto 4 {pop} repeat
  4485 5835 5280 5835 105 arcto 4 {pop} repeat
  5385 5835 5385 4365 105 arcto 4 {pop} repeat
  5385 4260 4590 4260 105 arcto 4 {pop} repeat
 cp gs col-1 s gr 
7.500 slw
% Ellipse
n 7635 4590 225 105 0 360 DrawEllipse gs col-1 s gr

% Polyline
n 7515 4935 m 7410 4935 7410 5055 105 arcto 4 {pop} repeat
  7410 5160 7755 5160 105 arcto 4 {pop} repeat
  7860 5160 7860 5040 105 arcto 4 {pop} repeat
  7860 4935 7515 4935 105 arcto 4 {pop} repeat
 cp gs col-1 s gr 
% Polyline
n 7860 5610 m 7860 5385 l 7410 5385 l 7410 5610 l
 cp gs col-1 s gr 
% Polyline
 [60] 0 sd
gs  clippath
7597 4950 m 7672 4950 l 7672 4785 l 7635 4920 l 7597 4785 l cp
eoclip
n 7635 4710 m
 7635 4935 l gs col-1 s gr gr
 [] 0 sd
% arrowhead
n 7597 4785 m 7635 4920 l 7672 4785 l  col-1 s
% Polyline
 [60] 0 sd
gs  clippath
7597 5400 m 7672 5400 l 7672 5235 l 7635 5370 l 7597 5235 l cp
eoclip
n 7635 5160 m
 7635 5385 l gs col-1 s gr gr
 [] 0 sd
% arrowhead
n 7597 5235 m 7635 5370 l 7672 5235 l  col-1 s
% Polyline
n 7631 5385 m 7639 5385 l gs col-1 s gr
% Polyline
n 7631 5385 m 7639 5385 l gs col-1 s gr
% Polyline
15.000 slw
n 7290 4260 m 7185 4260 7185 5730 105 arcto 4 {pop} repeat
  7185 5835 7980 5835 105 arcto 4 {pop} repeat
  8085 5835 8085 4365 105 arcto 4 {pop} repeat
  8085 4260 7290 4260 105 arcto 4 {pop} repeat
 cp gs col-1 s gr 
% Polyline
7.500 slw
gs  clippath
2212 8115 m 2287 8115 l 2287 7950 l 2250 8085 l 2212 7950 l cp
eoclip
n 2250 7875 m
 2250 8100 l gs col-1 s gr gr

% arrowhead
n 2212 7950 m 2250 8085 l 2287 7950 l  col-1 s
% Polyline
gs  clippath
3112 8115 m 3187 8115 l 3187 7950 l 3150 8085 l 3112 7950 l cp
eoclip
n 3150 7875 m
 3150 8100 l gs col-1 s gr gr

% arrowhead
n 3112 7950 m 3150 8085 l 3187 7950 l  col-1 s
% Polyline
gs  clippath
4012 8115 m 4087 8115 l 4087 7950 l 4050 8085 l 4012 7950 l cp
eoclip
n 4050 7875 m
 4050 8100 l gs col-1 s gr gr

% arrowhead
n 4012 7950 m 4050 8085 l 4087 7950 l  col-1 s
% Polyline
gs  clippath
4912 8115 m 4987 8115 l 4987 7950 l 4950 8085 l 4912 7950 l cp
eoclip
n 4950 7875 m
 4950 8100 l gs col-1 s gr gr

% arrowhead
n 4912 7950 m 4950 8085 l 4987 7950 l  col-1 s
% Polyline
gs  clippath
6712 8115 m 6787 8115 l 6787 7950 l 6750 8085 l 6712 7950 l cp
eoclip
n 6750 7875 m
 6750 8100 l gs col-1 s gr gr

% arrowhead
n 6712 7950 m 6750 8085 l 6787 7950 l  col-1 s
% Polyline
gs  clippath
7612 8115 m 7687 8115 l 7687 7950 l 7650 8085 l 7612 7950 l cp
eoclip
n 7650 7875 m
 7650 8100 l gs col-1 s gr gr

% arrowhead
n 7612 7950 m 7650 8085 l 7687 7950 l  col-1 s
% Polyline
gs  clippath
8512 8115 m 8587 8115 l 8587 7950 l 8550 8085 l 8512 7950 l cp
eoclip
n 8550 7875 m
 8550 8100 l gs col-1 s gr gr

% arrowhead
n 8512 7950 m 8550 8085 l 8587 7950 l  col-1 s
% Polyline
gs  clippath
7612 4290 m 7687 4290 l 7687 4125 l 7650 4260 l 7612 4125 l cp
eoclip
n 7650 3825 m
 7650 4275 l gs col-1 s gr gr

% arrowhead
n 7612 4125 m 7650 4260 l 7687 4125 l  col-1 s
% Polyline
n 7646 2250 m 7654 2250 l gs col-1 s gr
% Polyline
n 7646 2250 m 7654 2250 l gs col-1 s gr
% Polyline
gs  clippath
3112 4290 m 3187 4290 l 3187 4125 l 3150 4260 l 3112 4125 l cp
eoclip
n 4050 3825 m 4050 4050 l 3150 4050 l
 3150 4275 l gs col-1 s gr gr

% arrowhead
n 3112 4125 m 3150 4260 l 3187 4125 l  col-1 s
% Polyline
gs  clippath
3112 6315 m 3187 6315 l 3187 6150 l 3150 6285 l 3112 6150 l cp
eoclip
n 3150 5850 m
 3150 6300 l gs col-1 s gr gr

% arrowhead
n 3112 6150 m 3150 6285 l 3187 6150 l  col-1 s
% Polyline
gs  clippath
4012 6315 m 4087 6315 l 4087 6150 l 4050 6285 l 4012 6150 l cp
eoclip
n 3150 5850 m 3150 6075 l 4050 6075 l
 4050 6300 l gs col-1 s gr gr

% arrowhead
n 4012 6150 m 4050 6285 l 4087 6150 l  col-1 s
% Polyline
gs  clippath
2212 6315 m 2287 6315 l 2287 6150 l 2250 6285 l 2212 6150 l cp
eoclip
n 3150 5850 m 3150 6075 l 2250 6075 l
 2250 6300 l gs col-1 s gr gr

% arrowhead
n 2212 6150 m 2250 6285 l 2287 6150 l  col-1 s
% Polyline
gs  clippath
7612 6315 m 7687 6315 l 7687 6150 l 7650 6285 l 7612 6150 l cp
eoclip
n 7650 5850 m
 7650 6300 l gs col-1 s gr gr

% arrowhead
n 7612 6150 m 7650 6285 l 7687 6150 l  col-1 s
% Polyline
gs  clippath
6712 6315 m 6787 6315 l 6787 6150 l 6750 6285 l 6712 6150 l cp
eoclip
n 7650 5850 m 7650 6075 l 6750 6075 l
 6750 6300 l gs col-1 s gr gr

% arrowhead
n 6712 6150 m 6750 6285 l 6787 6150 l  col-1 s
% Polyline
n 6746 6300 m 6754 6300 l gs col-1 s gr
% Polyline
gs  clippath
8512 6315 m 8587 6315 l 8587 6150 l 8550 6285 l 8512 6150 l cp
eoclip
n 7650 5850 m 7650 6075 l 8550 6075 l
 8550 6300 l gs col-1 s gr gr

% arrowhead
n 8512 6150 m 8550 6285 l 8587 6150 l  col-1 s
% Polyline
gs  clippath
2212 7440 m 2287 7440 l 2287 7275 l 2250 7410 l 2212 7275 l cp
eoclip
n 2250 7200 m
 2250 7425 l gs col-1 s gr gr

% arrowhead
n 2212 7275 m 2250 7410 l 2287 7275 l  col-1 s
% Polyline
gs  clippath
3112 7440 m 3187 7440 l 3187 7275 l 3150 7410 l 3112 7275 l cp
eoclip
n 3150 7200 m
 3150 7425 l gs col-1 s gr gr

% arrowhead
n 3112 7275 m 3150 7410 l 3187 7275 l  col-1 s
% Polyline
gs  clippath
4012 7440 m 4087 7440 l 4087 7275 l 4050 7410 l 4012 7275 l cp
eoclip
n 4050 7200 m
 4050 7425 l gs col-1 s gr gr

% arrowhead
n 4012 7275 m 4050 7410 l 4087 7275 l  col-1 s
% Polyline
n 4046 7425 m 4054 7425 l gs col-1 s gr
% Polyline
n 4046 7425 m 4054 7425 l gs col-1 s gr
% Polyline
gs  clippath
4912 7440 m 4987 7440 l 4987 7275 l 4950 7410 l 4912 7275 l cp
eoclip
n 4950 7200 m
 4950 7425 l gs col-1 s gr gr

% arrowhead
n 4912 7275 m 4950 7410 l 4987 7275 l  col-1 s
% Polyline
gs  clippath
6712 7440 m 6787 7440 l 6787 7275 l 6750 7410 l 6712 7275 l cp
eoclip
n 6750 7200 m
 6750 7425 l gs col-1 s gr gr

% arrowhead
n 6712 7275 m 6750 7410 l 6787 7275 l  col-1 s
% Polyline
gs  clippath
7612 7440 m 7687 7440 l 7687 7275 l 7650 7410 l 7612 7275 l cp
eoclip
n 7650 7200 m
 7650 7425 l gs col-1 s gr gr

% arrowhead
n 7612 7275 m 7650 7410 l 7687 7275 l  col-1 s
% Polyline
gs  clippath
8512 7440 m 8587 7440 l 8587 7275 l 8550 7410 l 8512 7275 l cp
eoclip
n 8550 7200 m
 8550 7425 l gs col-1 s gr gr

% arrowhead
n 8512 7275 m 8550 7410 l 8587 7275 l  col-1 s
% Polyline
gs  clippath
4912 6315 m 4987 6315 l 4987 6150 l 4950 6285 l 4912 6150 l cp
eoclip
n 4950 5850 m
 4950 6300 l gs col-1 s gr gr

% arrowhead
n 4912 6150 m 4950 6285 l 4987 6150 l  col-1 s
% Polyline
gs  clippath
4912 4290 m 4987 4290 l 4987 4125 l 4950 4260 l 4912 4125 l cp
eoclip
n 4050 3825 m 4050 4050 l 4950 4050 l
 4950 4275 l gs col-1 s gr gr

% arrowhead
n 4912 4125 m 4950 4260 l 4987 4125 l  col-1 s
% Polyline
n 4946 4275 m 4954 4275 l gs col-1 s gr
% Polyline
n 4946 4275 m 4954 4275 l gs col-1 s gr
% Polyline
n 1121 225 m 1129 225 l gs col-1 s gr
% Polyline
n 1121 225 m 1129 225 l gs col-1 s gr
% Polyline
 [60] 0 sd
n 555 225 m 450 225 450 1695 105 arcto 4 {pop} repeat
  450 1800 1695 1800 105 arcto 4 {pop} repeat
  1800 1800 1800 330 105 arcto 4 {pop} repeat
  1800 225 555 225 105 arcto 4 {pop} repeat
 cp gs col-1 s gr  [] 0 sd
% Polyline
gs  clippath
1560 637 m 1560 712 l 1725 712 l 1590 675 l 1725 637 l cp
eoclip
n 2025 675 m
 1575 675 l gs col-1 s gr gr

% arrowhead
n 1725 637 m 1590 675 l 1725 712 l  col-1 s
% Polyline
gs  clippath
1560 1087 m 1560 1162 l 1725 1162 l 1590 1125 l 1725 1087 l cp
eoclip
n 2025 1125 m
 1575 1125 l gs col-1 s gr gr

% arrowhead
n 1725 1087 m 1590 1125 l 1725 1162 l  col-1 s
% Polyline
gs  clippath
1560 1537 m 1560 1612 l 1725 1612 l 1590 1575 l 1725 1537 l cp
eoclip
n 2025 1575 m
 1575 1575 l gs col-1 s gr gr

% arrowhead
n 1725 1537 m 1590 1575 l 1725 1612 l  col-1 s
% Polyline
 [60] 0 sd
n 1905 6300 m 1800 6300 1800 7095 105 arcto 4 {pop} repeat
  1800 7200 8895 7200 105 arcto 4 {pop} repeat
  9000 7200 9000 6405 105 arcto 4 {pop} repeat
  9000 6300 1905 6300 105 arcto 4 {pop} repeat
 cp gs col-1 s gr  [] 0 sd
% Polyline
 [60] 0 sd
n 1905 8100 m 1800 8100 1800 9120 105 arcto 4 {pop} repeat
  1800 9225 8895 9225 105 arcto 4 {pop} repeat
  9000 9225 9000 8205 105 arcto 4 {pop} repeat
  9000 8100 1905 8100 105 arcto 4 {pop} repeat
 cp gs col-1 s gr  [] 0 sd
% Polyline
gs  clippath
7612 2265 m 7687 2265 l 7687 2100 l 7650 2235 l 7612 2100 l cp
eoclip
n 5850 1800 m 5850 2025 l 7650 2025 l
 7650 2250 l gs col-1 s gr gr

% arrowhead
n 7612 2100 m 7650 2235 l 7687 2100 l  col-1 s
% Polyline
gs  clippath
4012 2265 m 4087 2265 l 4087 2100 l 4050 2235 l 4012 2100 l cp
eoclip
n 5850 1800 m 5850 2025 l 4050 2025 l
 4050 2250 l gs col-1 s gr gr

% arrowhead
n 4012 2100 m 4050 2235 l 4087 2100 l  col-1 s
/Times-Roman-iso ff 270.00 scf sf
2250 675 m
gs 1 -1 sc (machine) col-1 sh gr
/Times-Roman-iso ff 270.00 scf sf
2250 1125 m
gs 1 -1 sc (refinement\(s\)) col-1 sh gr
/Times-Roman-iso ff 270.00 scf sf
2250 1575 m
gs 1 -1 sc (implementation) col-1 sh gr
/Times-Roman-iso ff 270.00 scf sf
450 8775 m
gs 1 -1 sc (g\351n\351r\351) col-1 sh gr
/Times-Roman-iso ff 270.00 scf sf
450 6300 m
gs 1 -1 sc (librairie de) col-1 sh gr
/Times-Roman-iso ff 270.00 scf sf
450 6750 m
gs 1 -1 sc (machines) col-1 sh gr
/Times-Roman-iso ff 270.00 scf sf
450 7200 m
gs 1 -1 sc (de base) col-1 sh gr
/Times-Roman-iso ff 270.00 scf sf
450 8325 m
gs 1 -1 sc (code) col-1 sh gr
/Times-Roman-iso ff 270.00 scf sf
4950 450 m
gs 1 -1 sc (M) col-1 sh gr
/Times-Roman-iso ff 270.00 scf sf
2925 2250 m
gs 1 -1 sc (M.1) col-1 sh gr
/Times-Roman-iso ff 270.00 scf sf
2025 4275 m
gs 1 -1 sc (M.1.1) col-1 sh gr
/Times-Roman-iso ff 270.00 scf sf
5625 4275 m
gs 1 -1 sc (M.1.2) col-1 sh gr
/Times-Roman-iso ff 270.00 scf sf
8325 2250 m
gs 1 -1 sc (M.2) col-1 sh gr
/Times-Roman-iso ff 270.00 scf sf
8325 4275 m
gs 1 -1 sc (M.2.1) col-1 sh gr
$F2psEnd
rs
