%!PS-Adobe-2.0 EPSF-2.0
%%Title: Raffinement.eps
%%Creator: fig2dev Version 3.2 Patchlevel 1
%%CreationDate: Tue Oct  5 22:41:44 1999
%%For: atelierb@sphynx (Atelier B)
%%Orientation: Portrait
%%BoundingBox: 0 0 323 335
%%Pages: 0
%%BeginSetup
%%EndSetup
%%Magnification: 1.0000
%%EndComments
/$F2psDict 200 dict def
$F2psDict begin
$F2psDict /mtrx matrix put
/col-1 {0 setgray} bind def
/col0 {0.000 0.000 0.000 srgb} bind def
/col1 {0.000 0.000 1.000 srgb} bind def
/col2 {0.000 1.000 0.000 srgb} bind def
/col3 {0.000 1.000 1.000 srgb} bind def
/col4 {1.000 0.000 0.000 srgb} bind def
/col5 {1.000 0.000 1.000 srgb} bind def
/col6 {1.000 1.000 0.000 srgb} bind def
/col7 {1.000 1.000 1.000 srgb} bind def
/col8 {0.000 0.000 0.560 srgb} bind def
/col9 {0.000 0.000 0.690 srgb} bind def
/col10 {0.000 0.000 0.820 srgb} bind def
/col11 {0.530 0.810 1.000 srgb} bind def
/col12 {0.000 0.560 0.000 srgb} bind def
/col13 {0.000 0.690 0.000 srgb} bind def
/col14 {0.000 0.820 0.000 srgb} bind def
/col15 {0.000 0.560 0.560 srgb} bind def
/col16 {0.000 0.690 0.690 srgb} bind def
/col17 {0.000 0.820 0.820 srgb} bind def
/col18 {0.560 0.000 0.000 srgb} bind def
/col19 {0.690 0.000 0.000 srgb} bind def
/col20 {0.820 0.000 0.000 srgb} bind def
/col21 {0.560 0.000 0.560 srgb} bind def
/col22 {0.690 0.000 0.690 srgb} bind def
/col23 {0.820 0.000 0.820 srgb} bind def
/col24 {0.500 0.190 0.000 srgb} bind def
/col25 {0.630 0.250 0.000 srgb} bind def
/col26 {0.750 0.380 0.000 srgb} bind def
/col27 {1.000 0.500 0.500 srgb} bind def
/col28 {1.000 0.630 0.630 srgb} bind def
/col29 {1.000 0.750 0.750 srgb} bind def
/col30 {1.000 0.880 0.880 srgb} bind def
/col31 {1.000 0.840 0.000 srgb} bind def

end
save
-224.0 379.0 translate
1 -1 scale

/cp {closepath} bind def
/ef {eofill} bind def
/gr {grestore} bind def
/gs {gsave} bind def
/sa {save} bind def
/rs {restore} bind def
/l {lineto} bind def
/m {moveto} bind def
/rm {rmoveto} bind def
/n {newpath} bind def
/s {stroke} bind def
/sh {show} bind def
/slc {setlinecap} bind def
/slj {setlinejoin} bind def
/slw {setlinewidth} bind def
/srgb {setrgbcolor} bind def
/rot {rotate} bind def
/sc {scale} bind def
/sd {setdash} bind def
/ff {findfont} bind def
/sf {setfont} bind def
/scf {scalefont} bind def
/sw {stringwidth} bind def
/tr {translate} bind def
/tnt {dup dup currentrgbcolor
  4 -2 roll dup 1 exch sub 3 -1 roll mul add
  4 -2 roll dup 1 exch sub 3 -1 roll mul add
  4 -2 roll dup 1 exch sub 3 -1 roll mul add srgb}
  bind def
/shd {dup dup currentrgbcolor 4 -2 roll mul 4 -2 roll mul
  4 -2 roll mul srgb} bind def
/$F2psBegin {$F2psDict begin /$F2psEnteredState save def} def
/$F2psEnd {$F2psEnteredState restore end} def
%%EndProlog

$F2psBegin
10 setmiterlimit
n -1000 7312 m -1000 -1000 l 10105 -1000 l 10105 7312 l cp clip
 0.06000 0.06000 sc
% Polyline
7.500 slw
n 3750 750 m 5100 750 l 5100 1200 l 3750 1200 l cp gs col0 s gr 
% Polyline
n 3750 1650 m 5100 1650 l 5100 2100 l 3750 2100 l cp gs col0 s gr 
% Polyline
n 3750 2250 m 5100 2250 l 5100 2700 l 3750 2700 l cp gs col0 s gr 
% Polyline
n 3750 3600 m 5100 3600 l 5100 4050 l 3750 4050 l cp gs col0 s gr 
% Polyline
n 3750 4500 m 5100 4500 l 5100 4950 l 3750 4950 l cp gs col0 s gr 
% Polyline
n 3750 5850 m 5100 5850 l 5100 6300 l 3750 6300 l cp gs col0 s gr 
% Polyline
n 5100 975 m 5700 975 l 5700 1875 l 5100 1875 l gs col0 s gr 
% Polyline
n 5100 2025 m 5700 2025 l 5700 2325 l 5100 2325 l gs col0 s gr 
% Polyline
n 5700 3450 m 5700 3675 l 5100 3675 l gs col0 s gr 
% Polyline
n 5100 2625 m 5700 2625 l 5700 2850 l gs col0 s gr 
% Polyline
n 5100 3900 m 5700 3900 l 5700 4650 l 5100 4650 l gs col0 s gr 
% Polyline
n 4350 4950 m 4350 5850 l gs col0 s gr 
/Times-Roman ff 180.00 scf sf
3900 1050 m
gs 1 -1 sc (Requirements) col0 sh gr
/Times-Roman ff 180.00 scf sf
3900 1950 m
gs 1 -1 sc (Specification 0) col0 sh gr
/Times-Roman ff 180.00 scf sf
3900 3900 m
gs 1 -1 sc (Refinement n) col0 sh gr
/Times-Roman ff 180.00 scf sf
3900 4800 m
gs 1 -1 sc (Implementation) col0 sh gr
/Times-Roman ff 180.00 scf sf
3900 2550 m
gs 1 -1 sc (Refinement 1) col0 sh gr
/Times-Roman ff 180.00 scf sf
4125 6150 m
gs 1 -1 sc (Program) col0 sh gr
/Times-Roman ff 180.00 scf sf
6075 2025 m
gs 1 -1 sc (Developement steps : invent and verify) col0 sh gr
/Times-Roman ff 180.00 scf sf
6150 5100 m
gs 1 -1 sc (Specification is formal) col0 sh gr
/Times-Roman ff 180.00 scf sf
6150 5325 m
gs 1 -1 sc (Verification may be formal) col0 sh gr
$F2psEnd
rs
