%!PS-Adobe-2.0 EPSF
%%Title: /tmp/xfig-fig000161
%%Creator: fig2dev
%%CreationDate: Thu Aug 29 22:08:43 1996
%%For: mariano@atlantis (Mariano Georges)
%%BoundingBox: 0 0 576 360
%%Pages: 0
%%EndComments
/$F2psDict 200 dict def 
$F2psDict begin
$F2psDict /mtrx matrix put
/l {lineto} bind def
/m {moveto} bind def
/s {stroke} bind def
/n {newpath} bind def
/gs {gsave} bind def
/gr {grestore} bind def
/clp {closepath} bind def
/graycol {dup dup currentrgbcolor 4 -2 roll mul 4 -2 roll mul
4 -2 roll mul setrgbcolor} bind def
/col-1 {} def
/col0 {0 0 0 setrgbcolor} bind def
/col1 {0 0 1 setrgbcolor} bind def
/col2 {0 1 0 setrgbcolor} bind def
/col3 {0 1 1 setrgbcolor} bind def
/col4 {1 0 0 setrgbcolor} bind def
/col5 {1 0 1 setrgbcolor} bind def
/col6 {1 1 0 setrgbcolor} bind def
/col7 {1 1 1 setrgbcolor} bind def
	end
/$F2psBegin {$F2psDict begin /$F2psEnteredState save def} def
/$F2psEnd {$F2psEnteredState restore end} def
%%EndProlog

$F2psBegin
0 setlinecap 0 setlinejoin
-36.0 468.0 translate 0.900 -0.900 scale
0.500 setlinewidth
% Polyline
n 46 119 m 39 119 39 192 7 arcto 4 {pop} repeat 39 199 192 199 7 arcto 4 {pop} repeat 199 199 199 126 7 arcto 4 {pop} repeat 199 119 46 119 7 arcto 4 {pop} repeat clp gs col-1 s gr
/Times-Roman findfont 18.00 scalefont setfont
74 165 m 
gs 1 -1 scale (Abstraction) col-1 show gr
% Polyline
n 46 279 m 39 279 39 352 7 arcto 4 {pop} repeat 39 359 192 359 7 arcto 4 {pop} repeat 199 359 199 286 7 arcto 4 {pop} repeat 199 279 46 279 7 arcto 4 {pop} repeat clp gs col-1 s gr
/Times-Roman findfont 18.00 scalefont setfont
64 325 m 
gs 1 -1 scale (Concretisation) col-1 show gr
% Polyline
n 46 439 m 39 439 39 512 7 arcto 4 {pop} repeat 39 519 192 519 7 arcto 4 {pop} repeat 199 519 199 446 7 arcto 4 {pop} repeat 199 439 46 439 7 arcto 4 {pop} repeat clp gs col-1 s gr
/Times-Roman findfont 18.00 scalefont setfont
77 485 m 
gs 1 -1 scale (Realisation) col-1 show gr
% Polyline
n 119 199 m 119 279 l gs col-1 s gr
n 121.000 271.000 m 119.000 279.000 l 117.000 271.000 l gs 2 setlinejoin col-1 s gr
% Polyline
n 119 359 m 119 439 l gs col-1 s gr
n 121.000 431.000 m 119.000 439.000 l 117.000 431.000 l gs 2 setlinejoin col-1 s gr
% Polyline
n 286 119 m 279 119 279 192 7 arcto 4 {pop} repeat 279 199 432 199 7 arcto 4 {pop} repeat 439 199 439 126 7 arcto 4 {pop} repeat 439 119 286 119 7 arcto 4 {pop} repeat clp gs col-1 s gr
/Times-Roman findfont 18.00 scalefont setfont
326 165 m 
gs 1 -1 scale (Machine) col-1 show gr
% Polyline
n 286 279 m 279 279 279 352 7 arcto 4 {pop} repeat 279 359 432 359 7 arcto 4 {pop} repeat 439 359 439 286 7 arcto 4 {pop} repeat 439 279 286 279 7 arcto 4 {pop} repeat clp gs col-1 s gr
/Times-Roman findfont 18.00 scalefont setfont
319 318 m 
gs 1 -1 scale (Refinement) col-1 show gr
% Polyline
n 286 439 m 279 439 279 512 7 arcto 4 {pop} repeat 279 519 432 519 7 arcto 4 {pop} repeat 439 519 439 446 7 arcto 4 {pop} repeat 439 439 286 439 7 arcto 4 {pop} repeat clp gs col-1 s gr
/Times-Roman findfont 18.00 scalefont setfont
299 487 m 
gs 1 -1 scale (Implementation) col-1 show gr
% Polyline
n 359 199 m 359 279 l gs col-1 s gr
n 361.000 271.000 m 359.000 279.000 l 357.000 271.000 l gs 2 setlinejoin col-1 s gr
% Polyline
n 359 359 m 359 439 l gs col-1 s gr
n 361.000 431.000 m 359.000 439.000 l 357.000 431.000 l gs 2 setlinejoin col-1 s gr
% Polyline
n 526 119 m 519 119 519 192 7 arcto 4 {pop} repeat 519 199 672 199 7 arcto 4 {pop} repeat 679 199 679 126 7 arcto 4 {pop} repeat 679 119 526 119 7 arcto 4 {pop} repeat clp gs col-1 s gr
/Times-Roman findfont 18.00 scalefont setfont
559 165 m 
gs 1 -1 scale (Ensembles) col-1 show gr
% Polyline
n 526 279 m 519 279 519 352 7 arcto 4 {pop} repeat 519 359 672 359 7 arcto 4 {pop} repeat 679 359 679 286 7 arcto 4 {pop} repeat 679 279 526 279 7 arcto 4 {pop} repeat clp gs col-1 s gr
/Times-Roman findfont 18.00 scalefont setfont
560 327 m 
gs 1 -1 scale (Sequences) col-1 show gr
% Polyline
n 526 439 m 519 439 519 512 7 arcto 4 {pop} repeat 519 519 672 519 7 arcto 4 {pop} repeat 679 519 679 446 7 arcto 4 {pop} repeat 679 439 526 439 7 arcto 4 {pop} repeat clp gs col-1 s gr
/Times-Roman findfont 18.00 scalefont setfont
565 485 m 
gs 1 -1 scale (Tableaux) col-1 show gr
% Polyline
n 599 359 m 599 439 l gs col-1 s gr
n 601.000 431.000 m 599.000 439.000 l 597.000 431.000 l gs 2 setlinejoin col-1 s gr
% Polyline
n 599 199 m 599 279 l gs col-1 s gr
n 601.000 271.000 m 599.000 279.000 l 597.000 271.000 l gs 2 setlinejoin col-1 s gr
$F2psEnd
