%!PS-Adobe-2.0 EPSF-2.0
%%Title: systeme-formel.fig
%%Creator: fig2dev Version 3.1 Patchlevel 2
%%CreationDate: Mon Mar 10 12:18:46 1997
%%For: mariano@estas1 (Georges MARIANO)
%Magnification: 1.05
%%Orientation: Portrait
%%BoundingBox: 0 0 410 317
%%Pages: 0
%%BeginSetup
%%IncludeFeature: *PageSize A4
%%EndSetup
%%EndComments
/$F2psDict 200 dict def
$F2psDict begin
$F2psDict /mtrx matrix put
/col-1 {0 setgray} bind def
/col0 {0.000 0.000 0.000 srgb} bind def
/col1 {0.000 0.000 1.000 srgb} bind def
/col2 {0.000 1.000 0.000 srgb} bind def
/col3 {0.000 1.000 1.000 srgb} bind def
/col4 {1.000 0.000 0.000 srgb} bind def
/col5 {1.000 0.000 1.000 srgb} bind def
/col6 {1.000 1.000 0.000 srgb} bind def
/col7 {1.000 1.000 1.000 srgb} bind def
/col8 {0.000 0.000 0.560 srgb} bind def
/col9 {0.000 0.000 0.690 srgb} bind def
/col10 {0.000 0.000 0.820 srgb} bind def
/col11 {0.530 0.810 1.000 srgb} bind def
/col12 {0.000 0.560 0.000 srgb} bind def
/col13 {0.000 0.690 0.000 srgb} bind def
/col14 {0.000 0.820 0.000 srgb} bind def
/col15 {0.000 0.560 0.560 srgb} bind def
/col16 {0.000 0.690 0.690 srgb} bind def
/col17 {0.000 0.820 0.820 srgb} bind def
/col18 {0.560 0.000 0.000 srgb} bind def
/col19 {0.690 0.000 0.000 srgb} bind def
/col20 {0.820 0.000 0.000 srgb} bind def
/col21 {0.560 0.000 0.560 srgb} bind def
/col22 {0.690 0.000 0.690 srgb} bind def
/col23 {0.820 0.000 0.820 srgb} bind def
/col24 {0.500 0.190 0.000 srgb} bind def
/col25 {0.630 0.250 0.000 srgb} bind def
/col26 {0.750 0.380 0.000 srgb} bind def
/col27 {1.000 0.500 0.500 srgb} bind def
/col28 {1.000 0.630 0.630 srgb} bind def
/col29 {1.000 0.750 0.750 srgb} bind def
/col30 {1.000 0.880 0.880 srgb} bind def
/col31 {1.000 0.840 0.000 srgb} bind def

end
save
-25.0 331.0 translate
1 -1 scale

/cp {closepath} bind def
/ef {eofill} bind def
/gr {grestore} bind def
/gs {gsave} bind def
/sa {save} bind def
/rs {restore} bind def
/l {lineto} bind def
/m {moveto} bind def
/rm {rmoveto} bind def
/n {newpath} bind def
/s {stroke} bind def
/sh {show} bind def
/slc {setlinecap} bind def
/slj {setlinejoin} bind def
/slw {setlinewidth} bind def
/srgb {setrgbcolor} bind def
/rot {rotate} bind def
/sc {scale} bind def
/sd {setdash} bind def
/ff {findfont} bind def
/sf {setfont} bind def
/scf {scalefont} bind def
/sw {stringwidth} bind def
/tr {translate} bind def
/tnt {dup dup currentrgbcolor
  4 -2 roll dup 1 exch sub 3 -1 roll mul add
  4 -2 roll dup 1 exch sub 3 -1 roll mul add
  4 -2 roll dup 1 exch sub 3 -1 roll mul add srgb}
  bind def
/shd {dup dup currentrgbcolor 4 -2 roll mul 4 -2 roll mul
  4 -2 roll mul srgb} bind def
 /DrawEllipse {
	/endangle exch def
	/startangle exch def
	/yrad exch def
	/xrad exch def
	/y exch def
	/x exch def
	/savematrix mtrx currentmatrix def
	x y tr xrad yrad sc 0 0 1 startangle endangle arc
	closepath
	savematrix setmatrix
	} def

/$F2psBegin {$F2psDict begin /$F2psEnteredState save def} def
/$F2psEnd {$F2psEnteredState restore end} def
%%EndProlog

$F2psBegin
10 setmiterlimit
n 0 842 m 0 0 l 595 0 l 595 842 l cp clip
 0.06299 0.06299 sc
/Times-Roman ff 270.00 scf sf
2843 757 m
gs 1 -1 sc  330.0 rot (A) col-1 sh gr
/Times-Roman ff 270.00 scf sf
1994 1342 m
gs 1 -1 sc  120.0 rot (B) col-1 sh gr
/Times-Roman ff 270.00 scf sf
1814 311 m
gs 1 -1 sc  300.0 rot (A et B et C) col-1 sh gr
/Times-Roman ff 270.00 scf sf
5695 4557 m
gs 1 -1 sc  330.0 rot (A et B ou C) col-1 sh gr
7.500 slw
% Ellipse
n 2460 3390 62 62 0 360 DrawEllipse gs col-1 s gr

% Ellipse
n 3360 3375 62 62 0 360 DrawEllipse gs col-1 s gr

% Ellipse
n 4035 3180 62 62 0 360 DrawEllipse gs col-1 s gr

% Ellipse
n 4260 3840 62 62 0 360 DrawEllipse gs col-1 s gr

% Ellipse
n 3150 3825 62 62 0 360 DrawEllipse gs col-1 s gr

% Polyline
n 1350 1350 m 2250 2250 l 2250 2700 l 1575 2700 l 1575 4500 l 5175 4500 l
 5175 4050 l 5625 4050 l 5625 4275 l 5850 4275 l 5850 3825 l
 5175 3825 l 5175 2700 l 2475 2700 l 2475 2250 l 3375 1350 l gs col-1 s gr 
% Polyline
n 2925 3825 m 3090 3210 l 2640 2760 l 2025 2925 l 1860 3540 l 2310 3990 l
 cp gs col-1 s gr 
% Polyline
n 3375 3825 m 3220 3611 l 2968 3693 l 2968 3957 l 3220 4039 l cp gs col-1 s gr 
% Polyline
n 3600 3600 m 3659 3231 l 3325 3061 l 3061 3325 l 3231 3659 l cp gs col-1 s gr 
% Polyline
n 4500 3150 m 4331 2798 l 3950 2711 l 3645 2955 l 3645 3345 l 3950 3589 l
 4331 3502 l cp gs col-1 s gr 
% Polyline
n 4500 4050 m 4592 3853 l 4536 3642 l 4357 3518 l 4141 3537 l 3987 3691 l
 3968 3907 l 4092 4086 l 4303 4142 l cp gs col-1 s gr 
% Polyline
gs  clippath
3522 930 m 3402 900 l 3522 870 l 3360 870 l 3360 930 l  cp clip
n 6525 4500 m 6525 900 l 3375 900 l gs col-1 s gr gr

% arrowhead
n 3522 930 m 3402 900 l 3522 870 l 3522 900 l 3522 930 l  cp gs 0.00 setgray ef gr  col-1 s
45.000 slw
% Polyline
n 1575 3375 m 1125 3375 l 1125 2925 l 450 2925 l gs col-1 s gr 
$F2psEnd
rs
