%!PS-Adobe-2.0 EPSF-2.0
%%Title: TRIANGLE.eps
%%Creator: fig2dev Version 3.2 Patchlevel 3c
%%CreationDate: Thu Nov  9 00:15:26 2000
%%For: atelierb@sphynx ()
%%BoundingBox: 0 0 616 313
%%Magnification: 1.0000
%%EndComments
/$F2psDict 200 dict def
$F2psDict begin
$F2psDict /mtrx matrix put
/col-1 {0 setgray} bind def
/col0 {0.000 0.000 0.000 srgb} bind def
/col1 {0.000 0.000 1.000 srgb} bind def
/col2 {0.000 1.000 0.000 srgb} bind def
/col3 {0.000 1.000 1.000 srgb} bind def
/col4 {1.000 0.000 0.000 srgb} bind def
/col5 {1.000 0.000 1.000 srgb} bind def
/col6 {1.000 1.000 0.000 srgb} bind def
/col7 {1.000 1.000 1.000 srgb} bind def
/col8 {0.000 0.000 0.560 srgb} bind def
/col9 {0.000 0.000 0.690 srgb} bind def
/col10 {0.000 0.000 0.820 srgb} bind def
/col11 {0.530 0.810 1.000 srgb} bind def
/col12 {0.000 0.560 0.000 srgb} bind def
/col13 {0.000 0.690 0.000 srgb} bind def
/col14 {0.000 0.820 0.000 srgb} bind def
/col15 {0.000 0.560 0.560 srgb} bind def
/col16 {0.000 0.690 0.690 srgb} bind def
/col17 {0.000 0.820 0.820 srgb} bind def
/col18 {0.560 0.000 0.000 srgb} bind def
/col19 {0.690 0.000 0.000 srgb} bind def
/col20 {0.820 0.000 0.000 srgb} bind def
/col21 {0.560 0.000 0.560 srgb} bind def
/col22 {0.690 0.000 0.690 srgb} bind def
/col23 {0.820 0.000 0.820 srgb} bind def
/col24 {0.500 0.190 0.000 srgb} bind def
/col25 {0.630 0.250 0.000 srgb} bind def
/col26 {0.750 0.380 0.000 srgb} bind def
/col27 {1.000 0.500 0.500 srgb} bind def
/col28 {1.000 0.630 0.630 srgb} bind def
/col29 {1.000 0.750 0.750 srgb} bind def
/col30 {1.000 0.880 0.880 srgb} bind def
/col31 {1.000 0.840 0.000 srgb} bind def

end
save
newpath 0 313 moveto 0 0 lineto 616 0 lineto 616 313 lineto closepath clip newpath
-71.0 545.0 translate
1 -1 scale

/cp {closepath} bind def
/ef {eofill} bind def
/gr {grestore} bind def
/gs {gsave} bind def
/sa {save} bind def
/rs {restore} bind def
/l {lineto} bind def
/m {moveto} bind def
/rm {rmoveto} bind def
/n {newpath} bind def
/s {stroke} bind def
/sh {show} bind def
/slc {setlinecap} bind def
/slj {setlinejoin} bind def
/slw {setlinewidth} bind def
/srgb {setrgbcolor} bind def
/rot {rotate} bind def
/sc {scale} bind def
/sd {setdash} bind def
/ff {findfont} bind def
/sf {setfont} bind def
/scf {scalefont} bind def
/sw {stringwidth} bind def
/tr {translate} bind def
/tnt {dup dup currentrgbcolor
  4 -2 roll dup 1 exch sub 3 -1 roll mul add
  4 -2 roll dup 1 exch sub 3 -1 roll mul add
  4 -2 roll dup 1 exch sub 3 -1 roll mul add srgb}
  bind def
/shd {dup dup currentrgbcolor 4 -2 roll mul 4 -2 roll mul
  4 -2 roll mul srgb} bind def
/$F2psBegin {$F2psDict begin /$F2psEnteredState save def} def
/$F2psEnd {$F2psEnteredState restore end} def

$F2psBegin
%%Page: 1 1
10 setmiterlimit
 0.06000 0.06000 sc
%
% Fig objects follow
%
% Polyline
7.500 slw
gs  clippath
3585 6495 m 3585 6555 l 3737 6555 l 3617 6525 l 3737 6495 l cp
eoclip
n 4725 6525 m
 3600 6525 l gs col-1 s gr gr

% arrowhead
n 3737 6495 m 3617 6525 l 3737 6555 l  col-1 s
/Times-Roman ff 180.00 scf sf
1200 6600 m
gs 1 -1 sc (Basic_Type_De_Triangle.mch) col-1 sh gr
% Polyline
gs  clippath
3585 7095 m 3585 7155 l 3737 7155 l 3617 7125 l 3737 7095 l cp
eoclip
n 4725 7125 m
 3600 7125 l gs col-1 s gr gr

% arrowhead
n 3737 7095 m 3617 7125 l 3737 7155 l  col-1 s
/Times-Roman ff 180.00 scf sf
1200 7200 m
gs 1 -1 sc (Basic_Type_De_Triangle.mch) col-1 sh gr
% Polyline
gs  clippath
3585 4545 m 3585 4605 l 3737 4605 l 3617 4575 l 3737 4545 l cp
eoclip
n 4725 4575 m
 3600 4575 l gs col-1 s gr gr

% arrowhead
n 3737 4545 m 3617 4575 l 3737 4605 l  col-1 s
/Times-Roman ff 180.00 scf sf
1200 4650 m
gs 1 -1 sc (Basic_Type_De_Triangle.mch) col-1 sh gr
% Polyline
gs  clippath
3585 5970 m 3585 6030 l 3737 6030 l 3617 6000 l 3737 5970 l cp
eoclip
n 4725 6000 m
 3600 6000 l gs col-1 s gr gr

% arrowhead
n 3737 5970 m 3617 6000 l 3737 6030 l  col-1 s
/Times-Roman ff 180.00 scf sf
1200 6075 m
gs 1 -1 sc (Basic_Type_De_Triangle.mch) col-1 sh gr
% Polyline
gs  clippath
5055 5460 m 4995 5460 l 4995 5612 l 5025 5492 l 5055 5612 l cp
eoclip
n 5025 5475 m
 5025 5775 l gs col-1 s gr gr

% arrowhead
n 5055 5612 m 5025 5492 l 4995 5612 l  col-1 s
% Polyline
gs  clippath
4995 6465 m 5055 6465 l 5055 6313 l 5025 6433 l 4995 6313 l cp
eoclip
n 5025 6150 m
 5025 6450 l gs col-1 s gr gr

% arrowhead
n 4995 6313 m 5025 6433 l 5055 6313 l  col-1 s
% Polyline
gs  clippath
5130 6660 m 5070 6660 l 5070 6812 l 5100 6692 l 5130 6812 l cp
eoclip
n 5100 6975 m
 5100 6675 l gs col-1 s gr gr

% arrowhead
n 5130 6812 m 5100 6692 l 5070 6812 l  col-1 s
% Polyline
gs  clippath
5130 7260 m 5070 7260 l 5070 7412 l 5100 7292 l 5130 7412 l cp
eoclip
n 5100 7575 m
 5100 7275 l gs col-1 s gr gr

% arrowhead
n 5130 7412 m 5100 7292 l 5070 7412 l  col-1 s
% Polyline
gs  clippath
7830 6660 m 7770 6660 l 7770 6812 l 7800 6692 l 7830 6812 l cp
eoclip
n 7800 6675 m
 7800 6975 l gs col-1 s gr gr

% arrowhead
n 7830 6812 m 7800 6692 l 7770 6812 l  col-1 s
% Polyline
gs  clippath
7429 6483 m 7449 6426 l 7306 6375 l 7409 6444 l 7285 6431 l cp
eoclip
n 6375 6075 m
 7425 6450 l gs col-1 s gr gr

% arrowhead
n 7285 6431 m 7409 6444 l 7306 6375 l  col-1 s
% Polyline
gs  clippath
4995 5115 m 5055 5115 l 5055 4963 l 5025 5083 l 4995 4963 l cp
eoclip
n 5025 4800 m
 5025 5100 l gs col-1 s gr gr

% arrowhead
n 4995 4963 m 5025 5083 l 5055 4963 l  col-1 s
% Polyline
gs  clippath
5055 4110 m 4995 4110 l 4995 4262 l 5025 4142 l 5055 4262 l cp
eoclip
n 5025 4125 m
 5025 4425 l gs col-1 s gr gr

% arrowhead
n 5055 4262 m 5025 4142 l 4995 4262 l  col-1 s
% Polyline
gs  clippath
3585 5295 m 3585 5355 l 3737 5355 l 3617 5325 l 3737 5295 l cp
eoclip
n 4725 5325 m
 3600 5325 l gs col-1 s gr gr

% arrowhead
n 3737 5295 m 3617 5325 l 3737 5355 l  col-1 s
% Polyline
gs  clippath
3350 8227 m 3371 8283 l 3512 8228 l 3390 8244 l 3490 8172 l cp
eoclip
n 4725 7725 m
 3375 8250 l gs col-1 s gr gr

% arrowhead
n 3490 8172 m 3390 8244 l 3512 8228 l  col-1 s
% Polyline
gs  clippath
4766 8779 m 4823 8798 l 4871 8654 l 4805 8759 l 4814 8635 l cp
eoclip
n 5100 7875 m
 4800 8775 l gs col-1 s gr gr

% arrowhead
n 4814 8635 m 4805 8759 l 4871 8654 l  col-1 s
% Polyline
gs  clippath
6365 8732 m 6406 8687 l 6294 8586 l 6363 8689 l 6254 8630 l cp
eoclip
n 5550 7950 m
 6375 8700 l gs col-1 s gr gr

% arrowhead
n 6254 8630 m 6363 8689 l 6294 8586 l  col-1 s
% Polyline
gs  clippath
7890 4605 m 7890 4545 l 7738 4545 l 7858 4575 l 7738 4605 l cp
eoclip
n 6525 4575 m
 7875 4575 l gs col-1 s gr gr

% arrowhead
n 7738 4605 m 7858 4575 l 7738 4545 l  col-1 s
% Polyline
gs  clippath
9315 7155 m 9315 7095 l 9163 7095 l 9283 7125 l 9163 7155 l cp
eoclip
n 8625 7125 m
 9300 7125 l gs col-1 s gr gr

% arrowhead
n 9163 7155 m 9283 7125 l 9163 7095 l  col-1 s
% Polyline
gs  clippath
7444 5178 m 7464 5121 l 7321 5070 l 7424 5139 l 7300 5126 l cp
eoclip
n 6390 4770 m
 7440 5145 l gs col-1 s gr gr

% arrowhead
n 7300 5126 m 7424 5139 l 7321 5070 l  col-1 s
/Times-Roman ff 180.00 scf sf
4800 5400 m
gs 1 -1 sc (Type_Triangle.mch) col-1 sh gr
/Times-Roman ff 180.00 scf sf
4800 6075 m
gs 1 -1 sc (Type_Triangle_1.imp) col-1 sh gr
/Times-Roman ff 180.00 scf sf
4800 6600 m
gs 1 -1 sc (Triangle.mch) col-1 sh gr
/Times-Roman ff 180.00 scf sf
4800 7200 m
gs 1 -1 sc (Triangle_1.ref) col-1 sh gr
/Times-Roman ff 180.00 scf sf
4800 7800 m
gs 1 -1 sc (Triangle_2.imp) col-1 sh gr
/Times-Roman ff 180.00 scf sf
7500 6600 m
gs 1 -1 sc (Outils,mch) col-1 sh gr
/Times-Roman ff 180.00 scf sf
7500 7200 m
gs 1 -1 sc (Outils_1.mch) col-1 sh gr
/Times-Roman ff 180.00 scf sf
4725 4650 m
gs 1 -1 sc (Main_Interface_1.imp) col-1 sh gr
/Times-Roman ff 180.00 scf sf
4725 4050 m
gs 1 -1 sc (Main_Interface.mch) col-1 sh gr
/Times-Roman ff 180.00 scf sf
1200 5400 m
gs 1 -1 sc (Basic_Type_De_Triangle.mch) col-1 sh gr
/Times-Roman ff 180.00 scf sf
1200 8475 m
gs 1 -1 sc (Basic_Type_De_Triangle.mch) col-1 sh gr
/Times-Roman ff 180.00 scf sf
4050 9075 m
gs 1 -1 sc (Basic_BOOL.mch) col-1 sh gr
/Times-Roman ff 180.00 scf sf
6000 9000 m
gs 1 -1 sc (Basic_ARITHMETIC.mch) col-1 sh gr
/Times-Roman ff 180.00 scf sf
9375 7200 m
gs 1 -1 sc (Basic_ARITHMETIC.mch) col-1 sh gr
/Times-Roman ff 180.00 scf sf
8175 4650 m
gs 1 -1 sc (Basic_ARITHMETIC.mch) col-1 sh gr
/Times-Roman ff 180.00 scf sf
7575 5475 m
gs 1 -1 sc (Basic_IO.mch) col-1 sh gr
$F2psEnd
rs
