%!PS-Adobe-2.0 EPSF-2.0
%%Title: variables-etat.fig
%%Creator: fig2dev Version 3.1 Patchlevel 2
%%CreationDate: Fri Mar  7 18:03:28 1997
%%For: mariano@estas1 (Georges MARIANO)
%Magnification: 1.05
%%Orientation: Portrait
%%BoundingBox: 0 0 519 385
%%Pages: 0
%%BeginSetup
%%IncludeFeature: *PageSize A4
%%EndSetup
%%EndComments
/$F2psDict 200 dict def
$F2psDict begin
$F2psDict /mtrx matrix put
/col-1 {0 setgray} bind def
/col0 {0.000 0.000 0.000 srgb} bind def
/col1 {0.000 0.000 1.000 srgb} bind def
/col2 {0.000 1.000 0.000 srgb} bind def
/col3 {0.000 1.000 1.000 srgb} bind def
/col4 {1.000 0.000 0.000 srgb} bind def
/col5 {1.000 0.000 1.000 srgb} bind def
/col6 {1.000 1.000 0.000 srgb} bind def
/col7 {1.000 1.000 1.000 srgb} bind def
/col8 {0.000 0.000 0.560 srgb} bind def
/col9 {0.000 0.000 0.690 srgb} bind def
/col10 {0.000 0.000 0.820 srgb} bind def
/col11 {0.530 0.810 1.000 srgb} bind def
/col12 {0.000 0.560 0.000 srgb} bind def
/col13 {0.000 0.690 0.000 srgb} bind def
/col14 {0.000 0.820 0.000 srgb} bind def
/col15 {0.000 0.560 0.560 srgb} bind def
/col16 {0.000 0.690 0.690 srgb} bind def
/col17 {0.000 0.820 0.820 srgb} bind def
/col18 {0.560 0.000 0.000 srgb} bind def
/col19 {0.690 0.000 0.000 srgb} bind def
/col20 {0.820 0.000 0.000 srgb} bind def
/col21 {0.560 0.000 0.560 srgb} bind def
/col22 {0.690 0.000 0.690 srgb} bind def
/col23 {0.820 0.000 0.820 srgb} bind def
/col24 {0.500 0.190 0.000 srgb} bind def
/col25 {0.630 0.250 0.000 srgb} bind def
/col26 {0.750 0.380 0.000 srgb} bind def
/col27 {1.000 0.500 0.500 srgb} bind def
/col28 {1.000 0.630 0.630 srgb} bind def
/col29 {1.000 0.750 0.750 srgb} bind def
/col30 {1.000 0.880 0.880 srgb} bind def
/col31 {1.000 0.840 0.000 srgb} bind def

end
save
-65.0 403.0 translate
1 -1 scale

/cp {closepath} bind def
/ef {eofill} bind def
/gr {grestore} bind def
/gs {gsave} bind def
/sa {save} bind def
/rs {restore} bind def
/l {lineto} bind def
/m {moveto} bind def
/rm {rmoveto} bind def
/n {newpath} bind def
/s {stroke} bind def
/sh {show} bind def
/slc {setlinecap} bind def
/slj {setlinejoin} bind def
/slw {setlinewidth} bind def
/srgb {setrgbcolor} bind def
/rot {rotate} bind def
/sc {scale} bind def
/sd {setdash} bind def
/ff {findfont} bind def
/sf {setfont} bind def
/scf {scalefont} bind def
/sw {stringwidth} bind def
/tr {translate} bind def
/tnt {dup dup currentrgbcolor
  4 -2 roll dup 1 exch sub 3 -1 roll mul add
  4 -2 roll dup 1 exch sub 3 -1 roll mul add
  4 -2 roll dup 1 exch sub 3 -1 roll mul add srgb}
  bind def
/shd {dup dup currentrgbcolor 4 -2 roll mul 4 -2 roll mul
  4 -2 roll mul srgb} bind def
 /DrawEllipse {
	/endangle exch def
	/startangle exch def
	/yrad exch def
	/xrad exch def
	/y exch def
	/x exch def
	/savematrix mtrx currentmatrix def
	x y tr xrad yrad sc 0 0 1 startangle endangle arc
	closepath
	savematrix setmatrix
	} def

/$F2psBegin {$F2psDict begin /$F2psEnteredState save def} def
/$F2psEnd {$F2psEnteredState restore end} def
%%EndProlog

$F2psBegin
10 setmiterlimit
n 0 842 m 0 0 l 595 0 l 595 842 l cp clip
 0.06299 0.06299 sc
15.000 slw
% Ellipse
n 4615 2810 162 162 0 360 DrawEllipse gs col-1 s gr

% Ellipse
n 4615 5233 162 162 0 360 DrawEllipse gs col-1 s gr

2 slj
% Polyline
gs  clippath
1325 681 m 1385 441 l 1445 681 l 1445 357 l 1325 357 l  cp clip
n 1385 6363 m 1385 387 l gs col-1 s gr gr

% arrowhead
0 slj
n 1325 681 m 1385 441 l 1445 681 l 1385 681 l 1325 681 l  cp gs 0.00 setgray ef gr  col-1 s
2 slj
% Polyline
n 1062 6040 m 1062 6040 l gs col-1 s gr
% Polyline
gs  clippath
8197 5980 m 8437 6040 l 8197 6100 l 8521 6100 l 8521 5980 l  cp clip
n 1062 6040 m 8491 6040 l gs col-1 s gr gr

% arrowhead
0 slj
n 8197 5980 m 8437 6040 l 8197 6100 l 8197 6040 l 8197 5980 l  cp gs 0.00 setgray ef gr  col-1 s
2 slj
7.500 slw
% Polyline
n 3000 5879 m 3000 6202 l gs col-1 s gr 
% Polyline
n 4615 5879 m 4615 6202 l gs col-1 s gr 
% Polyline
n 6230 5879 m 6230 6202 l gs col-1 s gr 
% Polyline
n 7845 5879 m 7845 6202 l gs col-1 s gr 
% Polyline
n 1223 4425 m 1546 4425 l gs col-1 s gr 
% Polyline
n 1223 2810 m 1546 2810 l gs col-1 s gr 
% Polyline
n 1223 1194 m 1546 1194 l gs col-1 s gr 
% Polyline
 [66.7] 0 sd
n 3075 1194 m 3000 1194 3000 4350 75 arcto 4 {pop} repeat
  3000 4425 6155 4425 75 arcto 4 {pop} repeat
  6230 4425 6230 1269 75 arcto 4 {pop} repeat
  6230 1194 3075 1194 75 arcto 4 {pop} repeat
 cp gs col-1 s gr  [] 0 sd
15.000 slw
% Polyline
n 3195 1194 m 3000 1194 3000 4230 195 arcto 4 {pop} repeat
  3000 4425 6035 4425 195 arcto 4 {pop} repeat
  6230 4425 6230 1389 195 arcto 4 {pop} repeat
  6230 1194 3195 1194 195 arcto 4 {pop} repeat
 cp gs col-1 s gr 
7.500 slw
% Polyline
 [66.7] 0 sd
n 3646 3617 m 4938 3617 l 4938 4102 l 3646 4102 l cp gs col-1 s gr  [] 0 sd
% Polyline
n 3646 3617 m 4938 3617 l 4938 4102 l 3646 4102 l cp gs col-1 s gr 
15.000 slw
% Polyline
n 1580 4425 m 1385 4425 1385 5845 195 arcto 4 {pop} repeat
  1385 6040 7650 6040 195 arcto 4 {pop} repeat
  7845 6040 7845 4620 195 arcto 4 {pop} repeat
  7845 4425 1580 4425 195 arcto 4 {pop} repeat
 cp gs col-1 s gr 
30.000 slw
% Interp Spline
gs  clippath
4727 3173 m 4656 2879 l 4881 3081 l 4669 2725 l 4515 2817 l  cp clip
 [133.3] 0 sd
n 4615 5233 m
	4984.8 4540.2 5105.9 4217.1 5100 3940 curveto
	5093.8 3693.7 4972.7 3411.0 4615 2810 curveto
 gs col-1 s gr
 gr
 [] 0 sd
% arrowhead
0 slj
n 4727 3173 m 4656 2879 l 4881 3081 l 4841 3189 l 4727 3173 l  cp gs 0.00 setgray ef gr  col-1 s
/Times-Roman ff 150.00 scf sf
8491 5879 m
gs 1 -1 sc (X) col-1 sh gr
/Times-Roman ff 150.00 scf sf
1062 387 m
gs 1 -1 sc (Y) col-1 sh gr
/Times-Roman ff 195.00 scf sf
1223 2680 m
gs 1 -1 sc (2) col-1 sh gr
/Times-Roman ff 195.00 scf sf
1223 1097 m
gs 1 -1 sc (3) col-1 sh gr
/Times-Roman ff 195.00 scf sf
1223 4263 m
gs 1 -1 sc (1) col-1 sh gr
/Times-Roman ff 195.00 scf sf
3161 6363 m
gs 1 -1 sc (1) col-1 sh gr
/Times-Roman ff 195.00 scf sf
4776 6363 m
gs 1 -1 sc (2) col-1 sh gr
/Times-Roman ff 195.00 scf sf
6392 6363 m
gs 1 -1 sc (3) col-1 sh gr
/Times-Roman ff 195.00 scf sf
8007 6363 m
gs 1 -1 sc (4) col-1 sh gr
/Times-Roman ff 255.00 scf sf
4776 2648 m
gs 1 -1 sc (\(X=2,Y=2\)) col-1 sh gr
/Times-Roman ff 255.00 scf sf
4776 5556 m
gs 1 -1 sc (\(X=2 et Y=0.5\)) col-1 sh gr
/Times-Roman ff 255.00 scf sf
3807 3940 m
gs 1 -1 sc (Y:=Y+1.5) col-1 sh gr
/Times-Roman ff 255.00 scf sf
4776 1033 m
gs 1 -1 sc (P = { 1<X<3 et 1<Y<3 }) col-1 sh gr
/Times-Roman ff 255.00 scf sf
6617 4038 m
gs 1 -1 sc (Q = { 0<X<4 et 0<Y<1 }) col-1 sh gr
$F2psEnd
rs
