REFINEMENT
	structure_Bit2Integer

REFINES
	Bit2Integer

SEES
	   vhdltype

INCLUDES
	Mul2a.Mul2, Mul2b.Mul2, Mul2c.Mul2, Mul2d.Mul2, InitZero2.InitZero, Mul2d1.Mul2

VARIABLES
	BIT1_4, L16, L9, BIT1_3, L11, BIT1_2, L13, BIT1_1, Result, L7, CC

DEFINITIONS
	inv_structure_Bit2Integer == 
	   ( 
	   inv_Mul2( BIT1_4, L16, L9  ) 
	   & inv_Mul2( BIT1_3, L9, L11  ) 
	   & inv_Mul2( BIT1_2, L11, L13  ) 
	   & inv_Mul2( BIT1_1, L13, Result  ) 
	   & inv_InitZero( L7  ) 
	   & inv_Mul2( CC, L7, L16  ) 
	    )

	;"bhdl_type.def"
; 	"Mul2.def"
; 	"InitZero.def"
INVARIANT
	 inv_structure_Bit2Integer

INITIALISATION
	 BIT1_4, L16, L9, BIT1_3, L11, BIT1_2, L13, BIT1_1, Result, L7, CC : ( inv_structure_Bit2Integer )

OPERATIONS
	type_Bit2Integer = 
	BEGIN
BIT1_4, L16, L9, BIT1_3, L11, BIT1_2, L13, BIT1_1, Result, L7, CC : ( inv_structure_Bit2Integer )
	END

END
