%!PS-Adobe-2.0 EPSF-2.0
%%Title: pn_automata.xfig
%%Creator: fig2dev Version 3.2 Patchlevel 5-alpha5
%%CreationDate: Thu Apr 20 10:34:06 2006
%%For: petit@port-dpetit (petit,,,)
%%BoundingBox: 0 0 592 440
%Magnification: 1.0000
%%EndComments
/$F2psDict 200 dict def
$F2psDict begin
$F2psDict /mtrx matrix put
/col-1 {0 setgray} bind def
/col0 {0.000 0.000 0.000 srgb} bind def
/col1 {0.000 0.000 1.000 srgb} bind def
/col2 {0.000 1.000 0.000 srgb} bind def
/col3 {0.000 1.000 1.000 srgb} bind def
/col4 {1.000 0.000 0.000 srgb} bind def
/col5 {1.000 0.000 1.000 srgb} bind def
/col6 {1.000 1.000 0.000 srgb} bind def
/col7 {1.000 1.000 1.000 srgb} bind def
/col8 {0.000 0.000 0.560 srgb} bind def
/col9 {0.000 0.000 0.690 srgb} bind def
/col10 {0.000 0.000 0.820 srgb} bind def
/col11 {0.530 0.810 1.000 srgb} bind def
/col12 {0.000 0.560 0.000 srgb} bind def
/col13 {0.000 0.690 0.000 srgb} bind def
/col14 {0.000 0.820 0.000 srgb} bind def
/col15 {0.000 0.560 0.560 srgb} bind def
/col16 {0.000 0.690 0.690 srgb} bind def
/col17 {0.000 0.820 0.820 srgb} bind def
/col18 {0.560 0.000 0.000 srgb} bind def
/col19 {0.690 0.000 0.000 srgb} bind def
/col20 {0.820 0.000 0.000 srgb} bind def
/col21 {0.560 0.000 0.560 srgb} bind def
/col22 {0.690 0.000 0.690 srgb} bind def
/col23 {0.820 0.000 0.820 srgb} bind def
/col24 {0.500 0.190 0.000 srgb} bind def
/col25 {0.630 0.250 0.000 srgb} bind def
/col26 {0.750 0.380 0.000 srgb} bind def
/col27 {1.000 0.500 0.500 srgb} bind def
/col28 {1.000 0.630 0.630 srgb} bind def
/col29 {1.000 0.750 0.750 srgb} bind def
/col30 {1.000 0.880 0.880 srgb} bind def
/col31 {1.000 0.840 0.000 srgb} bind def

end
save
newpath 0 440 moveto 0 0 lineto 592 0 lineto 592 440 lineto closepath clip newpath
-96.3 495.1 translate
1 -1 scale

/cp {closepath} bind def
/ef {eofill} bind def
/gr {grestore} bind def
/gs {gsave} bind def
/sa {save} bind def
/rs {restore} bind def
/l {lineto} bind def
/m {moveto} bind def
/rm {rmoveto} bind def
/n {newpath} bind def
/s {stroke} bind def
/sh {show} bind def
/slc {setlinecap} bind def
/slj {setlinejoin} bind def
/slw {setlinewidth} bind def
/srgb {setrgbcolor} bind def
/rot {rotate} bind def
/sc {scale} bind def
/sd {setdash} bind def
/ff {findfont} bind def
/sf {setfont} bind def
/scf {scalefont} bind def
/sw {stringwidth} bind def
/tr {translate} bind def
/tnt {dup dup currentrgbcolor
  4 -2 roll dup 1 exch sub 3 -1 roll mul add
  4 -2 roll dup 1 exch sub 3 -1 roll mul add
  4 -2 roll dup 1 exch sub 3 -1 roll mul add srgb}
  bind def
/shd {dup dup currentrgbcolor 4 -2 roll mul 4 -2 roll mul
  4 -2 roll mul srgb} bind def
 /DrawEllipse {
	/endangle exch def
	/startangle exch def
	/yrad exch def
	/xrad exch def
	/y exch def
	/x exch def
	/savematrix mtrx currentmatrix def
	x y tr xrad yrad sc 0 0 1 startangle endangle arc
	closepath
	savematrix setmatrix
	} def

/$F2psBegin {$F2psDict begin /$F2psEnteredState save def} def
/$F2psEnd {$F2psEnteredState restore end} def

$F2psBegin
10 setmiterlimit
0 slj 0 slc
 0.06299 0.06299 sc
%
% Fig objects follow
%
% 
% here starts figure with depth 56
/Times-Bold ff 285.75 scf sf
4650 4162 m
gs 1 -1 sc (braking) col0 sh gr
% Polyline
0 slj
0 slc
15.000 slw
gs  clippath
8040 5635 m 8040 5955 l 8160 5955 l 8160 5635 l 8160 5635 l 8100 5875 l 8040 5635 l cp
eoclip
n 8100 4680 m
 8100 5940 l gs col0 s gr gr

% arrowhead
n 8040 5635 m 8100 5875 l 8160 5635 l 8040 5635 l  cp gs 0.00 setgray ef gr  col0 s
% here ends figure;
% 
% here starts figure with depth 53
/Times-Bold ff 349.25 scf sf
2700 3150 m
gs 1 -1 sc (Entering ) col0 sh gr
/Times-Bold ff 349.25 scf sf
2700 3465 m
gs 1 -1 sc (level crossing) col0 sh gr
/Times-Bold ff 349.25 scf sf
8235 4950 m
gs 1 -1 sc (Not safe) col0 sh gr
/Times-Bold ff 349.25 scf sf
8235 5205 m
gs 1 -1 sc (mode) col0 sh gr
/Times-Bold ff 285.75 scf sf
1672 4049 m
gs 1 -1 sc (Extern ) col0 sh gr
/Times-Bold ff 285.75 scf sf
1702 4275 m
gs 1 -1 sc (System) col0 sh gr
% Ellipse
15.000 slw
n 2115 4095 572 572 0 360 DrawEllipse gs col0 s gr

% Ellipse
n 5107 4095 579 579 0 360 DrawEllipse gs col0 s gr

/Times-Bold ff 285.75 scf sf
7897 1505 m
gs 1 -1 sc (low) col0 sh gr
/Times-Bold ff 285.75 scf sf
7777 1730 m
gs 1 -1 sc (speed) col0 sh gr
% Ellipse
n 8100 1552 511 511 0 360 DrawEllipse gs col0 s gr

/Times-Bold ff 285.75 scf sf
7694 4169 m
gs 1 -1 sc (waiting) col0 sh gr
% Ellipse
n 8122 4095 562 562 0 360 DrawEllipse gs col0 s gr

% Ellipse
n 8145 6570 596 596 0 360 DrawEllipse gs col0 s gr

/Times-Bold ff 285.75 scf sf
7687 6637 m
gs 1 -1 sc (braking) col0 sh gr
% Ellipse
n 5062 6525 511 511 0 360 DrawEllipse gs col0 s gr

/Times-Bold ff 285.75 scf sf
4815 6577 m
gs 1 -1 sc (stop) col0 sh gr
% Arc
0 slc
gs  clippath
8949 1648 m 8642 1558 l 8608 1673 l 8915 1763 l 8915 1763 l 8702 1638 l 8949 1648 l cp
eoclip
n 8065.6 4062.8 2509.4 78.8708 -76.7684 arcn
gs col0 s gr
 gr

% arrowhead
0 slj
n 8949 1648 m 8702 1638 l 8915 1763 l 8949 1648 l  cp gs 0.00 setgray ef gr  col0 s
% Arc
gs  clippath
8946 1490 m 8646 1378 l 8605 1491 l 8905 1602 l 8905 1602 l 8701 1463 l 8946 1490 l cp
eoclip
n 7626.0 4562.2 3282.8 132.6935 -72.0070 arcn
gs col0 s gr
 gr

% arrowhead
n 8946 1490 m 8701 1463 l 8905 1602 l 8946 1490 l  cp gs 0.00 setgray ef gr  col0 s
% Arc
gs  clippath
2022 3202 m 1918 3504 l 2031 3543 l 2136 3241 l 2136 3241 l 2001 3449 l 2022 3202 l cp
eoclip
n 5512.5 4586.3 3692.8 -54.6322 -163.0543 arcn
gs col0 s gr
 gr

% arrowhead
n 2022 3202 m 2001 3449 l 2136 3241 l 2022 3202 l  cp gs 0.00 setgray ef gr  col0 s
% Polyline
gs  clippath
4195 4110 m 4515 4110 l 4515 3990 l 4195 3990 l 4195 3990 l 4435 4050 l 4195 4110 l cp
eoclip
n 2700 4050 m
 4500 4050 l gs col0 s gr gr

% arrowhead
n 4195 4110 m 4435 4050 l 4195 3990 l 4195 4110 l  cp gs 0.00 setgray ef gr  col0 s
% Polyline
gs  clippath
8160 2330 m 8160 2010 l 8040 2010 l 8040 2330 l 8040 2330 l 8100 2090 l 8160 2330 l cp
eoclip
n 8100 3600 m
 8100 2025 l gs col0 s gr gr

% arrowhead
n 8160 2330 m 8100 2090 l 8040 2330 l 8160 2330 l  cp gs 0.00 setgray ef gr  col0 s
% Polyline
gs  clippath
5930 6465 m 5610 6465 l 5610 6585 l 5930 6585 l 5930 6585 l 5690 6525 l 5930 6465 l cp
eoclip
n 7650 6525 m
 5625 6525 l gs col0 s gr gr

% arrowhead
n 5930 6465 m 5690 6525 l 5930 6585 l 5930 6465 l  cp gs 0.00 setgray ef gr  col0 s
% Polyline
gs  clippath
7210 4110 m 7530 4110 l 7530 3990 l 7210 3990 l 7210 3990 l 7450 4050 l 7210 4110 l cp
eoclip
n 5625 4050 m
 7515 4050 l gs col0 s gr gr

% arrowhead
n 7210 4110 m 7450 4050 l 7210 3990 l 7210 4110 l  cp gs 0.00 setgray ef gr  col0 s
/Times-Bold ff 349.25 scf sf
9900 3825 m
gs 1 -1 sc (safe) col0 sh gr
/Times-Bold ff 349.25 scf sf
9675 7425 m
gs 1 -1 sc (safe) col0 sh gr
/Times-Bold ff 349.25 scf sf
9675 7740 m
gs 1 -1 sc (mode) col0 sh gr
/Times-Bold ff 349.25 scf sf
4050 1350 m
gs 1 -1 sc (quitting) col0 sh gr
/Times-Bold ff 349.25 scf sf
4050 1665 m
gs 1 -1 sc (level crossing) col0 sh gr
/Times-Bold ff 349.25 scf sf
4050 1980 m
gs 1 -1 sc (area) col0 sh gr
/Times-Bold ff 349.25 scf sf
2700 3780 m
gs 1 -1 sc (area) col0 sh gr
/Times-Bold ff 349.25 scf sf
6030 6840 m
gs 1 -1 sc (speed=0) col0 sh gr
/Times-Bold ff 349.25 scf sf
8190 2835 m
gs 1 -1 sc (safe mode) col0 sh gr
/Times-Bold ff 349.25 scf sf
9900 4140 m
gs 1 -1 sc (mode) col0 sh gr
/Times-Bold ff 349.25 scf sf
5850 3825 m
gs 1 -1 sc (speed=low) col0 sh gr
% here ends figure;
$F2psEnd
rs
showpage
%%Trailer
%EOF
