%!PS-Adobe-3.0 EPSF-3.0 
%%BoundingBox: 0 0 567 283
%%Pages: 0
%%Creator: Sun Microsystems, Inc.
%%Title: none
%%CreationDate: none
%%LanguageLevel: 2
%%EndComments
%%BeginProlog
%%BeginResource: SDRes
/b4_inc_state save def
/dict_count countdictstack def
/op_count count 1 sub def
userdict begin
0 setgray 0 setlinecap 1 setlinewidth 0 setlinejoin 10 setmiterlimit[] 0 setdash newpath
/languagelevel where {pop languagelevel 1 ne {false setstrokeadjust false setoverprint} if} if
/bdef {bind def} bind def
/c {setrgbcolor} bdef
/l {neg lineto} bdef
/rl {neg rlineto} bdef
/lc {setlinecap} bdef
/lj {setlinejoin} bdef
/lw {setlinewidth} bdef
/ml {setmiterlimit} bdef
/ld {setdash} bdef
/m {neg moveto} bdef
/ct {6 2 roll neg 6 2 roll neg 6 2 roll neg curveto} bdef
/r {rotate} bdef
/t {neg translate} bdef
/s {scale} bdef
/sw {show} bdef
/gs {gsave} bdef
/gr {grestore} bdef
/f {findfont dup length dict begin
{1 index /FID ne {def} {pop pop} ifelse} forall /Encoding ISOLatin1Encoding def
currentdict end /NFont exch definefont pop /NFont findfont} bdef
/p {closepath} bdef
/sf {scalefont setfont} bdef
/ef {eofill}bdef
/pc {closepath stroke}bdef
/ps {stroke}bdef
/pum {matrix currentmatrix}bdef
/pom {setmatrix}bdef
/bs {/aString exch def /nXOfs exch def /nWidth exch def currentpoint nXOfs 0 rmoveto pum nWidth aString stringwidth pop div 1 scale aString show pom moveto} bdef
%%EndResource
%%EndProlog
%%BeginSetup
%%EndSetup
%%Page: 1 1
%%BeginPageSetup
%%EndPageSetup
pum
0.02835 0.02829 s 
0 -10000 t
/tm matrix currentmatrix def
gs
0 0 m 19999 0 l 19999 9999 l 0 9999 l 0 0 l eoclip newpath
gs
0 0 m 19999 0 l 19999 9999 l 0 9999 l 0 0 l eoclip newpath
0 0 m 20000 0 l 20000 10000 l 0 10000 l 0 0 l eoclip newpath
1.000 1.000 1.000 c 13724 7429 m  13529 7429 l  13529 6909 l  13919 6909 l 
13919 7429 l  13724 7429 l  p ef
0 lw 1 lj 0.003 0.003 0.003 c 13724 7429 m  13529 7429 l  13529 6909 l  13919 6909 l 
13919 7429 l  13724 7429 l  pc
2227 4269 m  2227 5297 l  ps
1827 4269 m  1827 5297 l  ps
1427 4269 m  1427 5297 l  ps
1027 4269 m  1027 5297 l  ps
2627 4269 m  2627 5297 l  ps
3027 4269 m  3027 5297 l  ps
3427 4269 m  3427 5297 l  ps
3827 4269 m  3827 5297 l  ps
4227 4269 m  4227 5297 l  ps
4627 4269 m  4627 5297 l  ps
5027 4269 m  5027 5297 l  ps
5427 4269 m  5427 5297 l  ps
5827 4269 m  5827 5297 l  ps
6227 4269 m  6227 5297 l  ps
6627 4269 m  6627 5297 l  ps
7027 4269 m  7027 5297 l  ps
7027 4269 m  7027 5297 l  ps
8627 4269 m  8627 5297 l  ps
8227 4269 m  8227 5297 l  ps
7827 4269 m  7827 5297 l  ps
7427 4269 m  7427 5297 l  ps
9027 4269 m  9027 5297 l  ps
9427 4269 m  9427 5297 l  ps
9827 4269 m  9827 5297 l  ps
10227 4269 m  10227 5297 l  ps
10627 4269 m  10627 5297 l  ps
11027 4269 m  11027 5297 l  ps
11427 4269 m  11427 5297 l  ps
11827 4269 m  11827 5297 l  ps
12227 4269 m  12227 5297 l  ps
12627 4269 m  12627 5297 l  ps
13027 4269 m  13027 5297 l  ps
13427 4269 m  13427 5297 l  ps
13427 4269 m  13427 5297 l  ps
15027 4269 m  15027 5297 l  ps
14627 4269 m  14627 5297 l  ps
14227 4269 m  14227 5297 l  ps
13827 4269 m  13827 5297 l  ps
15427 4269 m  15427 5297 l  ps
15827 4269 m  15827 5297 l  ps
16227 4269 m  16227 5297 l  ps
16627 4269 m  16627 5297 l  ps
17027 4269 m  17027 5297 l  ps
17427 4269 m  17427 5297 l  ps
17827 4269 m  17827 5297 l  ps
18227 4269 m  18227 5297 l  ps
18627 4269 m  18627 5297 l  ps
19027 4269 m  19027 5297 l  ps
19427 4269 m  19427 5297 l  ps
1.000 0.203 0.203 c 13724 7299 m  13653 7299 13594 7240 13594 7169 ct 13594 7098 13653 7039 13724 7039 ct 
13795 7039 13854 7098 13854 7169 ct 13854 7240 13795 7299 13724 7299 ct p ef
0.003 0.003 0.003 c 13724 7299 m  13653 7299 13594 7240 13594 7169 ct 13594 7098 13653 7039 13724 7039 ct 
13795 7039 13854 7098 13854 7169 ct 13854 7240 13795 7299 13724 7299 ct pc
1.000 1.000 1.000 c 8524 2829 m  8329 2829 l  8329 2309 l  8719 2309 l 
8719 2829 l  8524 2829 l  p ef
0.003 0.003 0.003 c 8524 2829 m  8329 2829 l  8329 2309 l  8719 2309 l  8719 2829 l 
8524 2829 l  pc
1.000 0.203 0.203 c 8524 2699 m  8453 2699 8394 2640 8394 2569 ct 8394 2498 8453 2439 8524 2439 ct 
8595 2439 8654 2498 8654 2569 ct 8654 2640 8595 2699 8524 2699 ct p ef
0.003 0.003 0.003 c 8524 2699 m  8453 2699 8394 2640 8394 2569 ct 8394 2498 8453 2439 8524 2439 ct 
8595 2439 8654 2498 8654 2569 ct 8654 2640 8595 2699 8524 2699 ct pc
0.800 0.800 0.800 c 11121 9734 m  8887 9734 l  8887 278 l  13355 278 l 
13355 9734 l  11121 9734 l  p ef
0.003 0.003 0.003 c 11121 9734 m  8887 9734 l  8887 278 l  13355 278 l  13355 9734 l 
11121 9734 l  pc
200 lw 10988 6177 m  13663 6175 l  ps
8719 3475 m  11552 3488 l  ps
100 lw 665 4269 m  19880 4269 l  ps
622 5369 m  19880 5353 l  ps
gs
gs
pum
10001 1101 t
547 -16 m  515 -16 499 -25 475 -53 ct 475 -53 475 -53 304 -267 ct 359 -278 384 -289 412 -312 ct 
438 -334 454 -370 454 -410 ct 454 -446 443 -478 422 -503 ct 390 -538 321 -560 243 -560 ct 
243 -560 243 -560 14 -560 ct 14 -560 14 -560 14 -544 ct 77 -537 85 -528 85 -467 ct 
85 -467 85 -467 85 -97 ct 85 -26 77 -16 14 -16 ct 14 -16 14 -16 14 0 ct 14 0 14 0 244 0 ct 
244 0 244 0 244 -16 ct 180 -16 170 -27 170 -88 ct 170 -88 170 -88 170 -256 ct 170 -256 170 -256 216 -258 ct 
216 -258 216 -258 413 0 ct 413 0 413 0 547 0 ct 547 0 547 0 547 -16 ct p
170 -498 m  170 -522 179 -529 212 -529 ct 315 -529 364 -492 364 -412 ct 364 -369 346 -333 316 -317 ct 
278 -295 249 -289 170 -288 ct 170 -288 170 -288 170 -498 ct p ef
770 -390 m  663 -390 587 -308 587 -191 ct 587 -77 664 9 769 9 ct 873 9 953 -81 953 -198 ct 
953 -309 877 -390 770 -390 ct p
760 -366 m  829 -366 878 -285 878 -168 ct 878 -73 841 -15 779 -15 ct 746 -15 716 -35 698 -69 ct 
675 -113 662 -173 662 -233 ct 662 -313 701 -366 760 -366 ct p ef
1353 -56 m  1339 -45 1329 -41 1316 -41 ct 1297 -41 1291 -53 1291 -89 ct 1291 -89 1291 -89 1291 -254 ct 
1291 -298 1287 -323 1274 -343 ct 1254 -373 1217 -389 1165 -389 ct 1082 -389 1017 -348 1017 -295 ct 
1017 -275 1034 -258 1053 -258 ct 1073 -258 1090 -275 1090 -294 ct 1090 -297 1090 -301 1090 -307 ct 
1090 -315 1090 -322 1090 -328 ct 1090 -350 1119 -369 1155 -369 ct 1200 -369 1224 -344 1224 -299 ct 
1224 -299 1224 -299 1224 -247 ct 1096 -195 1082 -188 1047 -156 ct 1029 -139 1017 -110 1017 -82 ct 
1017 -29 1053 8 1104 8 ct 1140 8 1174 -10 1225 -54 ct 1229 -10 1244 8 1278 8 ct 
1306 8 1324 -2 1353 -35 ct 1353 -35 1353 -35 1353 -56 ct p
1224 -104 m  1224 -78 1220 -71 1203 -60 ct 1183 -49 1159 -41 1142 -41 ct 1113 -41 1090 -70 1090 -106 ct 
1090 -106 1090 -106 1090 -109 ct 1090 -159 1124 -190 1224 -227 ct 1224 -227 1224 -227 1224 -104 ct 
p ef
1649 8 m  1649 8 1649 8 1771 -36 ct 1771 -36 1771 -36 1771 -36 ct 1756 -36 1754 -36 1752 -36 ct 
1722 -36 1715 -46 1715 -85 ct 1715 -85 1715 -85 1715 -577 ct 1715 -577 1715 -577 1711 -579 ct 
1671 -564 1642 -556 1589 -541 ct 1589 -541 1589 -541 1589 -528 ct 1596 -529 1600 -529 1607 -529 ct 
1638 -529 1645 -520 1645 -485 ct 1645 -485 1645 -485 1645 -353 ct 1614 -380 1591 -390 1558 -390 ct 
1463 -390 1386 -294 1386 -174 ct 1386 -66 1448 8 1539 8 ct 1586 8 1617 -5 1645 -36 ct 
1645 -36 1645 -36 1645 5 ct 1645 5 1645 5 1649 8 ct p
1645 -87 m  1645 -81 1639 -71 1631 -61 ct 1616 -44 1596 -36 1571 -36 ct 1503 -36 1457 -104 1457 -208 ct 
1457 -303 1498 -366 1561 -366 ct 1605 -366 1645 -326 1645 -281 ct 1645 -281 1645 -281 1645 -87 ct 
p ef
pom
gr
gr
0.402 0.402 0.402 c 6622 5483 m  5147 5483 l  5147 4139 l  8097 4139 l 
8097 5483 l  6622 5483 l  p ef
0 lw 0.003 0.003 0.003 c 6622 5483 m  5147 5483 l  5147 4139 l  8097 4139 l 
8097 5483 l  6622 5483 l  pc
13764 6307 m  14396 6287 l  14282 6670 l  13764 6307 l  p ef
16222 7093 m  14210 6492 l  14238 6396 l  16250 6997 l  16222 7093 l  p ef
1606 5237 m  1411 5237 l  1411 4456 l  1801 4456 l  1801 5237 l  1606 5237 l 
p ef
1606 5237 m  1411 5237 l  1411 4456 l  1801 4456 l  1801 5237 l  1606 5237 l 
pc
17635 5166 m  17440 5166 l  17440 4385 l  17830 4385 l  17830 5166 l  17635 5166 l 
p ef
17635 5166 m  17440 5166 l  17440 4385 l  17830 4385 l  17830 5166 l  17635 5166 l 
pc
1446 4486 m  1147 3929 l  1541 3861 l  1446 4486 l  p ef
1278 3220 m  1414 4004 l  1315 4021 l  1180 3236 l  1278 3220 l  p ef
gs
gs
pum
4471 2847 t
211 -525 m  211 -525 211 -525 211 -98 ct 211 -25 202 -16 133 -16 ct 133 -16 133 -16 133 0 ct 
133 0 133 0 375 0 ct 375 0 375 0 375 -16 ct 307 -16 296 -27 296 -89 ct 296 -89 296 -89 296 -525 ct 
296 -525 296 -525 341 -525 ct 435 -525 453 -510 472 -416 ct 472 -416 472 -416 492 -416 ct 
492 -416 492 -416 487 -561 ct 487 -561 487 -561 19 -561 ct 19 -561 19 -561 14 -416 ct 
14 -416 14 -416 34 -416 ct 54 -509 73 -525 166 -525 ct 166 -525 166 -525 211 -525 ct 
p ef
522 -330 m  533 -332 541 -333 551 -333 ct 572 -333 579 -320 579 -282 ct 579 -282 579 -282 579 -71 ct 
579 -29 573 -23 520 -13 ct 520 -13 520 -13 520 0 ct 520 0 520 0 719 0 ct 719 0 719 0 719 -13 ct 
663 -13 649 -25 649 -74 ct 649 -74 649 -74 649 -266 ct 649 -293 684 -336 707 -336 ct 
712 -336 719 -331 728 -323 ct 742 -311 751 -306 762 -306 ct 782 -306 794 -320 794 -344 ct 
794 -372 777 -389 748 -389 ct 713 -389 689 -370 649 -309 ct 649 -309 649 -309 649 -387 ct 
649 -387 649 -387 645 -389 ct 601 -370 571 -359 522 -343 ct 522 -343 522 -343 522 -330 ct 
p ef
1167 -56 m  1153 -45 1143 -41 1130 -41 ct 1111 -41 1105 -53 1105 -89 ct 1105 -89 1105 -89 1105 -254 ct 
1105 -298 1101 -323 1088 -343 ct 1068 -373 1031 -389 979 -389 ct 896 -389 831 -348 831 -295 ct 
831 -275 848 -258 867 -258 ct 887 -258 904 -275 904 -294 ct 904 -297 904 -301 904 -307 ct 
904 -315 904 -322 904 -328 ct 904 -350 933 -369 969 -369 ct 1014 -369 1038 -344 1038 -299 ct 
1038 -299 1038 -299 1038 -247 ct 910 -195 896 -188 861 -156 ct 843 -139 831 -110 831 -82 ct 
831 -29 867 8 918 8 ct 954 8 988 -10 1039 -54 ct 1043 -10 1058 8 1092 8 ct 1120 8 1138 -2 1167 -35 ct 
1167 -35 1167 -35 1167 -56 ct p
1038 -104 m  1038 -78 1034 -71 1017 -60 ct 997 -49 973 -41 956 -41 ct 927 -41 904 -70 904 -106 ct 
904 -106 904 -106 904 -109 ct 904 -159 938 -190 1038 -227 ct 1038 -227 1038 -227 1038 -104 ct 
p ef
1322 -389 m  1322 -389 1322 -389 1208 -342 ct 1208 -342 1208 -342 1208 -329 ct 
1208 -329 1208 -329 1213 -330 ct 1221 -331 1229 -332 1235 -332 ct 1250 -332 1256 -319 1256 -281 ct 
1256 -281 1256 -281 1256 -83 ct 1256 -22 1249 -13 1205 -13 ct 1205 -13 1205 -13 1205 0 ct 
1205 0 1205 0 1386 0 ct 1386 0 1386 0 1386 -13 ct 1332 -13 1326 -21 1326 -83 ct 
1326 -83 1326 -83 1326 -386 ct 1326 -386 1326 -386 1322 -389 ct p
1290 -578 m  1272 -578 1256 -559 1256 -535 ct 1256 -511 1271 -492 1290 -492 ct 
1310 -492 1326 -511 1326 -535 ct 1326 -559 1310 -578 1290 -578 ct p ef
1427 -340 m  1432 -342 1440 -343 1450 -343 ct 1473 -343 1480 -330 1480 -288 ct 
1480 -288 1480 -288 1480 -74 ct 1480 -25 1471 -13 1429 -13 ct 1429 -13 1429 -13 1429 0 ct 
1429 0 1429 0 1605 0 ct 1605 0 1605 0 1605 -13 ct 1562 -13 1550 -23 1550 -54 ct 
1550 -54 1550 -54 1550 -296 ct 1590 -333 1608 -343 1636 -343 ct 1676 -343 1696 -316 1696 -260 ct 
1696 -260 1696 -260 1696 -81 ct 1696 -27 1685 -13 1644 -13 ct 1644 -13 1644 -13 1644 0 ct 
1644 0 1644 0 1817 0 ct 1817 0 1817 0 1817 -13 ct 1776 -17 1766 -26 1766 -66 ct 
1766 -66 1766 -66 1766 -264 ct 1766 -343 1730 -390 1669 -390 ct 1631 -390 1606 -376 1550 -323 ct 
1550 -323 1550 -323 1550 -388 ct 1550 -388 1550 -388 1544 -390 ct 1502 -374 1474 -365 1427 -351 ct 
1427 -351 1427 -351 1427 -340 ct p ef
pom
gr
gr
gs
gs
pum
16457 7451 t
14 -560 m  14 -560 14 -560 14 -544 ct 84 -544 94 -535 94 -471 ct 94 -471 94 -471 94 -91 ct 
94 -27 83 -16 14 -16 ct 14 -16 14 -16 14 0 ct 14 0 14 0 291 0 ct 356 0 415 -18 446 -47 ct 
475 -74 492 -112 492 -152 ct 492 -190 477 -224 451 -248 ct 427 -271 404 -281 350 -295 ct 
393 -306 411 -314 431 -332 ct 452 -350 464 -382 464 -416 ct 464 -511 390 -560 247 -560 ct 
247 -560 247 -560 14 -560 ct p
179 -276 m  253 -276 288 -272 315 -259 ct 359 -239 379 -205 379 -152 ct 379 -106 363 -73 333 -53 ct 
308 -38 277 -31 227 -31 ct 189 -31 179 -39 179 -66 ct 179 -66 179 -66 179 -276 ct 
p
179 -310 m  179 -310 179 -310 179 -503 ct 179 -521 184 -529 197 -529 ct 197 -529 197 -529 233 -529 ct 
329 -529 379 -488 379 -413 ct 379 -347 335 -310 257 -310 ct 257 -310 257 -310 179 -310 ct 
p ef
930 -56 m  916 -45 906 -41 893 -41 ct 874 -41 868 -53 868 -89 ct 868 -89 868 -89 868 -254 ct 
868 -298 864 -323 851 -343 ct 831 -373 794 -389 742 -389 ct 659 -389 594 -348 594 -295 ct 
594 -275 611 -258 630 -258 ct 650 -258 667 -275 667 -294 ct 667 -297 667 -301 667 -307 ct 
667 -315 667 -322 667 -328 ct 667 -350 696 -369 732 -369 ct 777 -369 801 -344 801 -299 ct 
801 -299 801 -299 801 -247 ct 673 -195 659 -188 624 -156 ct 606 -139 594 -110 594 -82 ct 
594 -29 630 8 681 8 ct 717 8 751 -10 802 -54 ct 806 -10 821 8 855 8 ct 883 8 901 -2 930 -35 ct 
930 -35 930 -35 930 -56 ct p
801 -104 m  801 -78 797 -71 780 -60 ct 760 -49 736 -41 719 -41 ct 690 -41 667 -70 667 -106 ct 
667 -106 667 -106 667 -109 ct 667 -159 701 -190 801 -227 ct 801 -227 801 -227 801 -104 ct 
p ef
946 -330 m  957 -332 965 -333 975 -333 ct 996 -333 1003 -320 1003 -282 ct 1003 -282 1003 -282 1003 -71 ct 
1003 -29 997 -23 944 -13 ct 944 -13 944 -13 944 0 ct 944 0 944 0 1143 0 ct 1143 0 1143 0 1143 -13 ct 
1087 -13 1073 -25 1073 -74 ct 1073 -74 1073 -74 1073 -266 ct 1073 -293 1108 -336 1131 -336 ct 
1136 -336 1143 -331 1152 -323 ct 1166 -311 1175 -306 1186 -306 ct 1206 -306 1218 -320 1218 -344 ct 
1218 -372 1201 -389 1172 -389 ct 1137 -389 1113 -370 1073 -309 ct 1073 -309 1073 -309 1073 -387 ct 
1073 -387 1073 -387 1069 -389 ct 1025 -370 995 -359 946 -343 ct 946 -343 946 -343 946 -330 ct 
p ef
1229 -330 m  1240 -332 1248 -333 1258 -333 ct 1279 -333 1286 -320 1286 -282 ct 
1286 -282 1286 -282 1286 -71 ct 1286 -29 1280 -23 1227 -13 ct 1227 -13 1227 -13 1227 0 ct 
1227 0 1227 0 1426 0 ct 1426 0 1426 0 1426 -13 ct 1370 -13 1356 -25 1356 -74 ct 
1356 -74 1356 -74 1356 -266 ct 1356 -293 1391 -336 1414 -336 ct 1419 -336 1426 -331 1435 -323 ct 
1449 -311 1458 -306 1469 -306 ct 1489 -306 1501 -320 1501 -344 ct 1501 -372 1484 -389 1455 -389 ct 
1420 -389 1396 -370 1356 -309 ct 1356 -309 1356 -309 1356 -387 ct 1356 -387 1356 -387 1352 -389 ct 
1308 -370 1278 -359 1229 -343 ct 1229 -343 1229 -343 1229 -330 ct p ef
1652 -389 m  1652 -389 1652 -389 1538 -342 ct 1538 -342 1538 -342 1538 -329 ct 
1538 -329 1538 -329 1543 -330 ct 1551 -331 1559 -332 1565 -332 ct 1580 -332 1586 -319 1586 -281 ct 
1586 -281 1586 -281 1586 -83 ct 1586 -22 1579 -13 1535 -13 ct 1535 -13 1535 -13 1535 0 ct 
1535 0 1535 0 1716 0 ct 1716 0 1716 0 1716 -13 ct 1662 -13 1656 -21 1656 -83 ct 
1656 -83 1656 -83 1656 -386 ct 1656 -386 1656 -386 1652 -389 ct p
1620 -578 m  1602 -578 1586 -559 1586 -535 ct 1586 -511 1601 -492 1620 -492 ct 
1640 -492 1656 -511 1656 -535 ct 1656 -559 1640 -578 1620 -578 ct p ef
2083 -139 m  2043 -75 2007 -50 1954 -50 ct 1907 -50 1871 -75 1847 -123 ct 1832 -155 1826 -183 1825 -235 ct 
1825 -235 1825 -235 2080 -235 ct 2074 -290 2065 -314 2044 -341 ct 2020 -372 1981 -389 1938 -389 ct 
1897 -389 1858 -374 1826 -346 ct 1787 -311 1765 -251 1765 -181 ct 1765 -64 1825 8 1920 8 ct 
1999 8 2061 -42 2096 -133 ct 2096 -133 2096 -133 2083 -139 ct p
1826 -262 m  1835 -328 1864 -359 1914 -359 ct 1965 -359 1985 -335 1996 -262 ct 
1996 -262 1996 -262 1826 -262 ct p ef
2127 -330 m  2138 -332 2146 -333 2156 -333 ct 2177 -333 2184 -320 2184 -282 ct 
2184 -282 2184 -282 2184 -71 ct 2184 -29 2178 -23 2125 -13 ct 2125 -13 2125 -13 2125 0 ct 
2125 0 2125 0 2324 0 ct 2324 0 2324 0 2324 -13 ct 2268 -13 2254 -25 2254 -74 ct 
2254 -74 2254 -74 2254 -266 ct 2254 -293 2289 -336 2312 -336 ct 2317 -336 2324 -331 2333 -323 ct 
2347 -311 2356 -306 2367 -306 ct 2387 -306 2399 -320 2399 -344 ct 2399 -372 2382 -389 2353 -389 ct 
2318 -389 2294 -370 2254 -309 ct 2254 -309 2254 -309 2254 -387 ct 2254 -387 2254 -387 2250 -389 ct 
2206 -370 2176 -359 2127 -343 ct 2127 -343 2127 -343 2127 -330 ct p ef
2667 -266 m  2667 -266 2667 -266 2663 -381 ct 2663 -381 2663 -381 2654 -381 ct 
2654 -381 2654 -381 2653 -381 ct 2645 -381 2644 -381 2641 -381 ct 2636 -381 2628 -382 2618 -384 ct 
2600 -387 2582 -389 2560 -389 ct 2495 -389 2448 -345 2448 -284 ct 2448 -237 2474 -203 2545 -162 ct 
2545 -162 2545 -162 2593 -135 ct 2622 -118 2636 -97 2636 -71 ct 2636 -34 2609 -10 2567 -10 ct 
2538 -10 2513 -21 2497 -40 ct 2479 -61 2472 -80 2461 -129 ct 2461 -129 2461 -129 2448 -129 ct 
2448 -129 2448 -129 2448 9 ct 2448 9 2448 9 2459 9 ct 2464 9 2468 9 2478 9 ct 2485 9 2497 9 2516 9 ct 
2539 9 2562 9 2577 9 ct 2641 9 2694 -41 2694 -100 ct 2694 -142 2674 -170 2624 -201 ct 
2624 -201 2624 -201 2535 -255 ct 2511 -268 2499 -290 2499 -312 ct 2499 -346 2525 -370 2563 -370 ct 
2610 -370 2635 -341 2654 -266 ct 2654 -266 2654 -266 2667 -266 ct p ef
pom
gr
gr
gs
gs
pum
5001 8324 t
547 -16 m  515 -16 499 -25 475 -53 ct 475 -53 475 -53 304 -267 ct 359 -278 384 -289 412 -312 ct 
438 -334 454 -370 454 -410 ct 454 -446 443 -478 422 -503 ct 390 -538 321 -560 243 -560 ct 
243 -560 243 -560 14 -560 ct 14 -560 14 -560 14 -544 ct 77 -537 85 -528 85 -467 ct 
85 -467 85 -467 85 -97 ct 85 -26 77 -16 14 -16 ct 14 -16 14 -16 14 0 ct 14 0 14 0 244 0 ct 
244 0 244 0 244 -16 ct 180 -16 170 -27 170 -88 ct 170 -88 170 -88 170 -256 ct 170 -256 170 -256 216 -258 ct 
216 -258 216 -258 413 0 ct 413 0 413 0 547 0 ct 547 0 547 0 547 -16 ct p
170 -498 m  170 -522 179 -529 212 -529 ct 315 -529 364 -492 364 -412 ct 364 -369 346 -333 316 -317 ct 
278 -295 249 -289 170 -288 ct 170 -288 170 -288 170 -498 ct p ef
902 -139 m  862 -75 826 -50 773 -50 ct 726 -50 690 -75 666 -123 ct 651 -155 645 -183 644 -235 ct 
644 -235 644 -235 899 -235 ct 893 -290 884 -314 863 -341 ct 839 -372 800 -389 757 -389 ct 
716 -389 677 -374 645 -346 ct 606 -311 584 -251 584 -181 ct 584 -64 644 8 739 8 ct 
818 8 880 -42 915 -133 ct 915 -133 915 -133 902 -139 ct p
645 -262 m  654 -328 683 -359 733 -359 ct 784 -359 804 -335 815 -262 ct 815 -262 815 -262 645 -262 ct 
p ef
1226 8 m  1226 8 1226 8 1348 -36 ct 1348 -36 1348 -36 1348 -36 ct 1333 -36 1331 -36 1329 -36 ct 
1299 -36 1292 -46 1292 -85 ct 1292 -85 1292 -85 1292 -577 ct 1292 -577 1292 -577 1288 -579 ct 
1248 -564 1219 -556 1166 -541 ct 1166 -541 1166 -541 1166 -528 ct 1173 -529 1177 -529 1184 -529 ct 
1215 -529 1222 -520 1222 -485 ct 1222 -485 1222 -485 1222 -353 ct 1191 -380 1168 -390 1135 -390 ct 
1040 -390 963 -294 963 -174 ct 963 -66 1025 8 1116 8 ct 1163 8 1194 -5 1222 -36 ct 
1222 -36 1222 -36 1222 5 ct 1222 5 1222 5 1226 8 ct p
1222 -87 m  1222 -81 1216 -71 1208 -61 ct 1193 -44 1173 -36 1148 -36 ct 1080 -36 1034 -104 1034 -208 ct 
1034 -303 1075 -366 1138 -366 ct 1182 -366 1222 -326 1222 -281 ct 1222 -281 1222 -281 1222 -87 ct 
p ef
1591 -523 m  1591 -523 1591 -523 1596 -523 ct 1605 -524 1615 -525 1621 -525 ct 
1648 -525 1656 -513 1656 -473 ct 1656 -473 1656 -473 1656 -69 ct 1656 -24 1645 -13 1592 -13 ct 
1592 -13 1592 -13 1592 0 ct 1592 0 1592 0 1788 0 ct 1788 0 1788 0 1788 -13 ct 1736 -13 1726 -21 1726 -67 ct 
1726 -67 1726 -67 1726 -572 ct 1726 -572 1726 -572 1723 -574 ct 1680 -560 1648 -551 1591 -537 ct 
1591 -537 1591 -537 1591 -523 ct p ef
1957 -389 m  1957 -389 1957 -389 1843 -342 ct 1843 -342 1843 -342 1843 -329 ct 
1843 -329 1843 -329 1848 -330 ct 1856 -331 1864 -332 1870 -332 ct 1885 -332 1891 -319 1891 -281 ct 
1891 -281 1891 -281 1891 -83 ct 1891 -22 1884 -13 1840 -13 ct 1840 -13 1840 -13 1840 0 ct 
1840 0 1840 0 2021 0 ct 2021 0 2021 0 2021 -13 ct 1967 -13 1961 -21 1961 -83 ct 
1961 -83 1961 -83 1961 -386 ct 1961 -386 1961 -386 1957 -389 ct p
1925 -578 m  1907 -578 1891 -559 1891 -535 ct 1891 -511 1906 -492 1925 -492 ct 
1945 -492 1961 -511 1961 -535 ct 1961 -559 1945 -578 1925 -578 ct p ef
2431 -329 m  2431 -329 2431 -329 2431 -362 ct 2431 -362 2431 -362 2375 -362 ct 
2359 -362 2346 -365 2330 -370 ct 2330 -370 2330 -370 2311 -377 ct 2289 -386 2266 -390 2245 -390 ct 
2167 -390 2106 -328 2106 -250 ct 2106 -196 2128 -164 2183 -136 ct 2167 -121 2151 -106 2146 -102 ct 
2117 -78 2106 -62 2106 -45 ct 2106 -28 2117 -18 2153 -1 ct 2094 43 2072 71 2072 102 ct 
2072 147 2137 184 2215 184 ct 2278 184 2342 162 2385 127 ct 2417 101 2431 74 2431 41 ct 
2431 -11 2392 -47 2331 -49 ct 2331 -49 2331 -49 2224 -54 ct 2180 -56 2159 -63 2159 -77 ct 
2159 -93 2187 -120 2209 -126 ct 2216 -126 2222 -126 2225 -126 ct 2241 -126 2251 -126 2256 -126 ct 
2287 -126 2320 -139 2346 -162 ct 2374 -185 2386 -215 2386 -258 ct 2386 -282 2382 -302 2370 -329 ct 
2370 -329 2370 -329 2431 -329 ct p
2171 2 m  2198 8 2265 13 2305 13 ct 2381 13 2409 24 2409 54 ct 2409 103 2345 136 2251 136 ct 
2178 136 2130 111 2130 74 ct 2130 55 2136 44 2171 2 ct p
2175 -286 m  2175 -336 2198 -366 2236 -366 ct 2262 -366 2284 -352 2297 -326 ct 
2312 -296 2322 -257 2322 -224 ct 2322 -177 2298 -147 2260 -147 ct 2210 -147 2175 -202 2175 -284 ct 
2175 -284 2175 -284 2175 -286 ct p ef
2602 -291 m  2637 -330 2662 -344 2695 -344 ct 2736 -344 2757 -314 2757 -254 ct 
2757 -254 2757 -254 2757 -86 ct 2757 -29 2749 -18 2700 -13 ct 2700 -13 2700 -13 2700 0 ct 
2700 0 2700 0 2877 0 ct 2877 0 2877 0 2877 -13 ct 2832 -21 2827 -28 2827 -86 ct 
2827 -86 2827 -86 2827 -255 ct 2827 -344 2792 -390 2724 -390 ct 2675 -390 2640 -369 2602 -319 ct 
2602 -319 2602 -319 2602 -576 ct 2602 -576 2602 -576 2598 -579 ct 2570 -568 2549 -562 2502 -548 ct 
2502 -548 2502 -548 2480 -541 ct 2480 -541 2480 -541 2480 -528 ct 2483 -529 2486 -529 2490 -529 ct 
2526 -529 2532 -522 2532 -485 ct 2532 -485 2532 -485 2532 -86 ct 2532 -27 2527 -19 2479 -13 ct 
2479 -13 2479 -13 2479 0 ct 2479 0 2479 0 2659 0 ct 2659 0 2659 0 2659 -13 ct 2610 -18 2602 -28 2602 -86 ct 
2602 -86 2602 -86 2602 -291 ct p ef
3108 -381 m  3108 -381 3108 -381 3024 -381 ct 3024 -381 3024 -381 3024 -479 ct 
3024 -488 3023 -490 3018 -490 ct 3012 -483 3007 -475 3001 -467 ct 2970 -420 2934 -379 2921 -376 ct 
2912 -370 2907 -364 2907 -360 ct 2907 -357 2908 -356 2910 -354 ct 2910 -354 2910 -354 2954 -354 ct 
2954 -354 2954 -354 2954 -99 ct 2954 -28 2979 8 3028 8 ct 3069 8 3100 -12 3127 -56 ct 
3127 -56 3127 -56 3117 -66 ct 3099 -44 3085 -36 3067 -36 ct 3036 -36 3024 -59 3024 -112 ct 
3024 -112 3024 -112 3024 -354 ct 3024 -354 3024 -354 3108 -354 ct 3108 -354 3108 -354 3108 -381 ct 
p ef
3395 -266 m  3395 -266 3395 -266 3391 -381 ct 3391 -381 3391 -381 3382 -381 ct 
3382 -381 3382 -381 3381 -381 ct 3373 -381 3372 -381 3369 -381 ct 3364 -381 3356 -382 3346 -384 ct 
3328 -387 3310 -389 3288 -389 ct 3223 -389 3176 -345 3176 -284 ct 3176 -237 3202 -203 3273 -162 ct 
3273 -162 3273 -162 3321 -135 ct 3350 -118 3364 -97 3364 -71 ct 3364 -34 3337 -10 3295 -10 ct 
3266 -10 3241 -21 3225 -40 ct 3207 -61 3200 -80 3189 -129 ct 3189 -129 3189 -129 3176 -129 ct 
3176 -129 3176 -129 3176 9 ct 3176 9 3176 9 3187 9 ct 3192 9 3196 9 3206 9 ct 3213 9 3225 9 3244 9 ct 
3267 9 3290 9 3305 9 ct 3369 9 3422 -41 3422 -100 ct 3422 -142 3402 -170 3352 -201 ct 
3352 -201 3352 -201 3263 -255 ct 3239 -268 3227 -290 3227 -312 ct 3227 -346 3253 -370 3291 -370 ct 
3338 -370 3363 -341 3382 -266 ct 3382 -266 3382 -266 3395 -266 ct p ef
pom
gr
gr
gs
gs
pum
106 3006 t
371 -572 m  371 -572 371 -572 354 -572 ct 351 -553 341 -543 327 -543 ct 319 -543 305 -547 291 -553 ct 
260 -565 229 -572 203 -572 ct 167 -572 130 -558 103 -533 ct 74 -507 59 -471 59 -427 ct 
59 -360 96 -312 189 -262 ct 248 -230 292 -195 312 -163 ct 320 -152 324 -135 324 -114 ct 
324 -58 282 -19 222 -19 ct 148 -19 96 -65 54 -169 ct 54 -169 54 -169 35 -169 ct 
35 -169 35 -169 60 11 ct 60 11 60 11 78 11 ct 79 -5 89 -17 101 -17 ct 110 -17 125 -14 140 -8 ct 
172 4 205 11 238 11 ct 334 11 408 -56 408 -143 ct 408 -212 362 -267 253 -327 ct 
165 -376 130 -413 130 -459 ct 130 -505 165 -537 217 -537 ct 254 -537 289 -521 318 -491 ct 
344 -464 356 -442 369 -392 ct 369 -392 369 -392 390 -392 ct 390 -392 390 -392 371 -572 ct 
p ef
809 -139 m  769 -75 733 -50 680 -50 ct 633 -50 597 -75 573 -123 ct 558 -155 552 -183 551 -235 ct 
551 -235 551 -235 806 -235 ct 800 -290 791 -314 770 -341 ct 746 -372 707 -389 664 -389 ct 
623 -389 584 -374 552 -346 ct 513 -311 491 -251 491 -181 ct 491 -64 551 8 646 8 ct 
725 8 787 -42 822 -133 ct 822 -133 822 -133 809 -139 ct p
552 -262 m  561 -328 590 -359 640 -359 ct 691 -359 711 -335 722 -262 ct 722 -262 722 -262 552 -262 ct 
p ef
860 -340 m  865 -342 873 -343 883 -343 ct 906 -343 913 -330 913 -288 ct 913 -288 913 -288 913 -74 ct 
913 -25 904 -13 862 -13 ct 862 -13 862 -13 862 0 ct 862 0 862 0 1038 0 ct 1038 0 1038 0 1038 -13 ct 
995 -13 983 -23 983 -54 ct 983 -54 983 -54 983 -296 ct 1023 -333 1041 -343 1069 -343 ct 
1109 -343 1129 -316 1129 -260 ct 1129 -260 1129 -260 1129 -81 ct 1129 -27 1118 -13 1077 -13 ct 
1077 -13 1077 -13 1077 0 ct 1077 0 1077 0 1250 0 ct 1250 0 1250 0 1250 -13 ct 1209 -17 1199 -26 1199 -66 ct 
1199 -66 1199 -66 1199 -264 ct 1199 -343 1163 -390 1102 -390 ct 1064 -390 1039 -376 983 -323 ct 
983 -323 983 -323 983 -388 ct 983 -388 983 -388 977 -390 ct 935 -374 907 -365 860 -351 ct 
860 -351 860 -351 860 -340 ct p ef
1532 -266 m  1532 -266 1532 -266 1528 -381 ct 1528 -381 1528 -381 1519 -381 ct 
1519 -381 1519 -381 1518 -381 ct 1510 -381 1509 -381 1506 -381 ct 1501 -381 1493 -382 1483 -384 ct 
1465 -387 1447 -389 1425 -389 ct 1360 -389 1313 -345 1313 -284 ct 1313 -237 1339 -203 1410 -162 ct 
1410 -162 1410 -162 1458 -135 ct 1487 -118 1501 -97 1501 -71 ct 1501 -34 1474 -10 1432 -10 ct 
1403 -10 1378 -21 1362 -40 ct 1344 -61 1337 -80 1326 -129 ct 1326 -129 1326 -129 1313 -129 ct 
1313 -129 1313 -129 1313 9 ct 1313 9 1313 9 1324 9 ct 1329 9 1333 9 1343 9 ct 1350 9 1362 9 1381 9 ct 
1404 9 1427 9 1442 9 ct 1506 9 1559 -41 1559 -100 ct 1559 -142 1539 -170 1489 -201 ct 
1489 -201 1489 -201 1400 -255 ct 1376 -268 1364 -290 1364 -312 ct 1364 -346 1390 -370 1428 -370 ct 
1475 -370 1500 -341 1519 -266 ct 1519 -266 1519 -266 1532 -266 ct p ef
1807 -390 m  1700 -390 1624 -308 1624 -191 ct 1624 -77 1701 9 1806 9 ct 1910 9 1990 -81 1990 -198 ct 
1990 -309 1914 -390 1807 -390 ct p
1797 -366 m  1866 -366 1915 -285 1915 -168 ct 1915 -73 1878 -15 1816 -15 ct 
1783 -15 1753 -35 1735 -69 ct 1712 -113 1699 -173 1699 -233 ct 1699 -313 1738 -366 1797 -366 ct 
p ef
2030 -330 m  2041 -332 2049 -333 2059 -333 ct 2080 -333 2087 -320 2087 -282 ct 
2087 -282 2087 -282 2087 -71 ct 2087 -29 2081 -23 2028 -13 ct 2028 -13 2028 -13 2028 0 ct 
2028 0 2028 0 2227 0 ct 2227 0 2227 0 2227 -13 ct 2171 -13 2157 -25 2157 -74 ct 
2157 -74 2157 -74 2157 -266 ct 2157 -293 2192 -336 2215 -336 ct 2220 -336 2227 -331 2236 -323 ct 
2250 -311 2259 -306 2270 -306 ct 2290 -306 2302 -320 2302 -344 ct 2302 -372 2285 -389 2256 -389 ct 
2221 -389 2197 -370 2157 -309 ct 2157 -309 2157 -309 2157 -387 ct 2157 -387 2157 -387 2153 -389 ct 
2109 -370 2079 -359 2030 -343 ct 2030 -343 2030 -343 2030 -330 ct p ef
pom
gr
gr
11812 3662 m  12410 3868 l  12167 4185 l  11812 3662 l  p ef
16206 7085 m  12163 3993 l  12224 3914 l  16266 7005 l  16206 7085 l  p ef
13460 7305 m  12884 7567 l  12842 7169 l  13460 7305 l  p ef
8461 7782 m  12977 7306 l  12988 7405 l  8471 7882 l  8461 7782 l  p ef
8472 3054 m  8676 3653 l  8276 3655 l  8472 3054 l  p ef
8452 7867 m  8425 3534 l  8525 3534 l  8552 7867 l  8452 7867 l  p ef
gs
gs
pum
17277 3006 t
371 -572 m  371 -572 371 -572 354 -572 ct 351 -553 341 -543 327 -543 ct 319 -543 305 -547 291 -553 ct 
260 -565 229 -572 203 -572 ct 167 -572 130 -558 103 -533 ct 74 -507 59 -471 59 -427 ct 
59 -360 96 -312 189 -262 ct 248 -230 292 -195 312 -163 ct 320 -152 324 -135 324 -114 ct 
324 -58 282 -19 222 -19 ct 148 -19 96 -65 54 -169 ct 54 -169 54 -169 35 -169 ct 
35 -169 35 -169 60 11 ct 60 11 60 11 78 11 ct 79 -5 89 -17 101 -17 ct 110 -17 125 -14 140 -8 ct 
172 4 205 11 238 11 ct 334 11 408 -56 408 -143 ct 408 -212 362 -267 253 -327 ct 
165 -376 130 -413 130 -459 ct 130 -505 165 -537 217 -537 ct 254 -537 289 -521 318 -491 ct 
344 -464 356 -442 369 -392 ct 369 -392 369 -392 390 -392 ct 390 -392 390 -392 371 -572 ct 
p ef
809 -139 m  769 -75 733 -50 680 -50 ct 633 -50 597 -75 573 -123 ct 558 -155 552 -183 551 -235 ct 
551 -235 551 -235 806 -235 ct 800 -290 791 -314 770 -341 ct 746 -372 707 -389 664 -389 ct 
623 -389 584 -374 552 -346 ct 513 -311 491 -251 491 -181 ct 491 -64 551 8 646 8 ct 
725 8 787 -42 822 -133 ct 822 -133 822 -133 809 -139 ct p
552 -262 m  561 -328 590 -359 640 -359 ct 691 -359 711 -335 722 -262 ct 722 -262 722 -262 552 -262 ct 
p ef
860 -340 m  865 -342 873 -343 883 -343 ct 906 -343 913 -330 913 -288 ct 913 -288 913 -288 913 -74 ct 
913 -25 904 -13 862 -13 ct 862 -13 862 -13 862 0 ct 862 0 862 0 1038 0 ct 1038 0 1038 0 1038 -13 ct 
995 -13 983 -23 983 -54 ct 983 -54 983 -54 983 -296 ct 1023 -333 1041 -343 1069 -343 ct 
1109 -343 1129 -316 1129 -260 ct 1129 -260 1129 -260 1129 -81 ct 1129 -27 1118 -13 1077 -13 ct 
1077 -13 1077 -13 1077 0 ct 1077 0 1077 0 1250 0 ct 1250 0 1250 0 1250 -13 ct 1209 -17 1199 -26 1199 -66 ct 
1199 -66 1199 -66 1199 -264 ct 1199 -343 1163 -390 1102 -390 ct 1064 -390 1039 -376 983 -323 ct 
983 -323 983 -323 983 -388 ct 983 -388 983 -388 977 -390 ct 935 -374 907 -365 860 -351 ct 
860 -351 860 -351 860 -340 ct p ef
1532 -266 m  1532 -266 1532 -266 1528 -381 ct 1528 -381 1528 -381 1519 -381 ct 
1519 -381 1519 -381 1518 -381 ct 1510 -381 1509 -381 1506 -381 ct 1501 -381 1493 -382 1483 -384 ct 
1465 -387 1447 -389 1425 -389 ct 1360 -389 1313 -345 1313 -284 ct 1313 -237 1339 -203 1410 -162 ct 
1410 -162 1410 -162 1458 -135 ct 1487 -118 1501 -97 1501 -71 ct 1501 -34 1474 -10 1432 -10 ct 
1403 -10 1378 -21 1362 -40 ct 1344 -61 1337 -80 1326 -129 ct 1326 -129 1326 -129 1313 -129 ct 
1313 -129 1313 -129 1313 9 ct 1313 9 1313 9 1324 9 ct 1329 9 1333 9 1343 9 ct 1350 9 1362 9 1381 9 ct 
1404 9 1427 9 1442 9 ct 1506 9 1559 -41 1559 -100 ct 1559 -142 1539 -170 1489 -201 ct 
1489 -201 1489 -201 1400 -255 ct 1376 -268 1364 -290 1364 -312 ct 1364 -346 1390 -370 1428 -370 ct 
1475 -370 1500 -341 1519 -266 ct 1519 -266 1519 -266 1532 -266 ct p ef
1807 -390 m  1700 -390 1624 -308 1624 -191 ct 1624 -77 1701 9 1806 9 ct 1910 9 1990 -81 1990 -198 ct 
1990 -309 1914 -390 1807 -390 ct p
1797 -366 m  1866 -366 1915 -285 1915 -168 ct 1915 -73 1878 -15 1816 -15 ct 
1783 -15 1753 -35 1735 -69 ct 1712 -113 1699 -173 1699 -233 ct 1699 -313 1738 -366 1797 -366 ct 
p ef
2030 -330 m  2041 -332 2049 -333 2059 -333 ct 2080 -333 2087 -320 2087 -282 ct 
2087 -282 2087 -282 2087 -71 ct 2087 -29 2081 -23 2028 -13 ct 2028 -13 2028 -13 2028 0 ct 
2028 0 2028 0 2227 0 ct 2227 0 2227 0 2227 -13 ct 2171 -13 2157 -25 2157 -74 ct 
2157 -74 2157 -74 2157 -266 ct 2157 -293 2192 -336 2215 -336 ct 2220 -336 2227 -331 2236 -323 ct 
2250 -311 2259 -306 2270 -306 ct 2290 -306 2302 -320 2302 -344 ct 2302 -372 2285 -389 2256 -389 ct 
2221 -389 2197 -370 2157 -309 ct 2157 -309 2157 -309 2157 -387 ct 2157 -387 2157 -387 2153 -389 ct 
2109 -370 2079 -359 2030 -343 ct 2030 -343 2030 -343 2030 -330 ct p ef
pom
gr
gr
17711 4442 m  17781 3813 l  18144 3981 l  17711 4442 l  p ef
18277 3336 m  17958 4027 l  17867 3985 l  18187 3294 l  18277 3336 l  p ef
5847 4186 m  5548 3629 l  5942 3561 l  5847 4186 l  p ef
5679 2920 m  5815 3704 l  5716 3721 l  5581 2936 l  5679 2920 l  p ef
gr
gs
0 0 m 19999 0 l 19999 9999 l 0 9999 l 0 0 l eoclip newpath
gr
gr
0 10000 t 
pom
count op_count sub {pop} repeat countdictstack dict_count sub {end} repeat b4_inc_state restore
%%PageTrailer
%%Trailer
%%EOF
