REFINEMENT        TeamR

REFINES           Team

ABSTRACT_VARIABLES teamr

INVARIANT         teamr : 1 .. 11 >-> 1 .. 22
                  & ran ( teamr ) = team

INITIALISATION    teamr := % nn . ( nn : 1 .. 11 | nn )

OPERATIONS

  substitute ( pp , rr ) =
  teamr ( teamr ~ ( pp ) ) := rr ;

  aa <-- query ( pp ) =
  IF pp : ran ( teamr )
  THEN aa := in
  ELSE aa := out
  END

END
