REFINEMENT        ColoursR

REFINES           Colours

VARIABLES         colour

INVARIANT         colour : cols

INITIALISATION    colour :: COLOUR - {blue}

OPERATIONS

  add(cc) = BEGIN colour :: {colour, cc} END;

  cc <-- query = cc := colour;

  change = BEGIN colour :: COLOUR - {colour} END

END
